C:\GIT\sGIT\lyty-functional-tests\functional-tests\selenium\selenium-gwt-components-matchers\src\main\java\com\ihg\automation\selenium\matchers\component\IsEnabled.java
C:\GIT\sGIT\lyty-functional-tests\functional-tests\selenium\selenium-gwt-components-matchers\src\main\java\com\ihg\automation\selenium\matchers\date\IsBeforeOrEqualsDate.java
C:\GIT\sGIT\lyty-functional-tests\functional-tests\selenium\selenium-gwt-components-matchers\src\main\java\com\ihg\automation\selenium\matchers\component\HasTipText.java
C:\GIT\sGIT\lyty-functional-tests\functional-tests\selenium\selenium-gwt-components-matchers\src\main\java\com\ihg\automation\selenium\matchers\HasSameItemsAsCollection.java
C:\GIT\sGIT\lyty-functional-tests\functional-tests\selenium\selenium-gwt-components-matchers\src\main\java\com\ihg\automation\selenium\matchers\ContainsSameItemsAsCollection.java
C:\GIT\sGIT\lyty-functional-tests\functional-tests\selenium\selenium-gwt-components-matchers\src\main\java\com\ihg\automation\selenium\matchers\date\IsAfterOrEqualsDate.java
C:\GIT\sGIT\lyty-functional-tests\functional-tests\selenium\selenium-gwt-components-matchers\src\main\java\com\ihg\automation\selenium\formatter\StringFormatter.java
C:\GIT\sGIT\lyty-functional-tests\functional-tests\selenium\selenium-gwt-components-matchers\src\main\java\com\ihg\automation\selenium\matchers\text\ContainsIgnoreCase.java
C:\GIT\sGIT\lyty-functional-tests\functional-tests\selenium\selenium-gwt-components-matchers\src\main\java\com\ihg\automation\selenium\matchers\component\IsRequired.java
C:\GIT\sGIT\lyty-functional-tests\functional-tests\selenium\selenium-gwt-components-matchers\src\main\java\com\ihg\automation\selenium\matchers\component\IsSelected.java
C:\GIT\sGIT\lyty-functional-tests\functional-tests\selenium\selenium-gwt-components-matchers\src\main\java\com\ihg\automation\selenium\matchers\WaiterMatcher.java
C:\GIT\sGIT\lyty-functional-tests\functional-tests\selenium\selenium-gwt-components-matchers\src\main\java\com\ihg\automation\selenium\matchers\date\IsBeforeDate.java
C:\GIT\sGIT\lyty-functional-tests\functional-tests\selenium\selenium-gwt-components-matchers\src\main\java\com\ihg\automation\selenium\matchers\date\IsAfterDate.java
C:\GIT\sGIT\lyty-functional-tests\functional-tests\selenium\selenium-gwt-components-matchers\src\main\java\com\ihg\automation\selenium\matchers\text\AsInteger.java
C:\GIT\sGIT\lyty-functional-tests\functional-tests\selenium\selenium-gwt-components-matchers\src\main\java\com\ihg\automation\selenium\matchers\text\AsFormattedInteger.java
C:\GIT\sGIT\lyty-functional-tests\functional-tests\selenium\selenium-gwt-components-matchers\src\main\java\com\ihg\automation\selenium\matchers\text\StringConverterMatcherBase.java
C:\GIT\sGIT\lyty-functional-tests\functional-tests\selenium\selenium-gwt-components-matchers\src\main\java\com\ihg\automation\selenium\matchers\text\AsFormattedDouble.java
C:\GIT\sGIT\lyty-functional-tests\functional-tests\selenium\selenium-gwt-components-matchers\src\main\java\com\ihg\automation\selenium\matchers\component\HasDualListItems.java
C:\GIT\sGIT\lyty-functional-tests\functional-tests\selenium\selenium-gwt-components-matchers\src\main\java\com\ihg\automation\selenium\matchers\component\HighlightDifferent.java
C:\GIT\sGIT\lyty-functional-tests\functional-tests\selenium\selenium-gwt-components-matchers\src\main\java\com\ihg\automation\selenium\matchers\component\HasText.java
C:\GIT\sGIT\lyty-functional-tests\functional-tests\selenium\selenium-gwt-components-matchers\src\main\java\com\ihg\automation\selenium\matchers\component\ContainsDualListItems.java
C:\GIT\sGIT\lyty-functional-tests\functional-tests\selenium\selenium-gwt-components-matchers\src\main\java\com\ihg\automation\selenium\matchers\text\AsCollection.java
C:\GIT\sGIT\lyty-functional-tests\functional-tests\selenium\selenium-gwt-components-matchers\src\main\java\com\ihg\automation\selenium\matchers\text\AsLocalDate.java
C:\GIT\sGIT\lyty-functional-tests\functional-tests\selenium\selenium-gwt-components-matchers\src\main\java\com\ihg\automation\selenium\matchers\component\HasDefaultOrText.java
C:\GIT\sGIT\lyty-functional-tests\functional-tests\selenium\selenium-gwt-components-matchers\src\main\java\com\ihg\automation\selenium\matchers\component\FlushComponent.java
C:\GIT\sGIT\lyty-functional-tests\functional-tests\selenium\selenium-gwt-components-matchers\src\main\java\com\ihg\automation\selenium\matchers\component\ComponentMatcher.java
C:\GIT\sGIT\lyty-functional-tests\functional-tests\selenium\selenium-gwt-components-matchers\src\main\java\com\ihg\automation\selenium\matchers\component\GridSize.java
C:\GIT\sGIT\lyty-functional-tests\functional-tests\selenium\selenium-gwt-components-matchers\src\main\java\com\ihg\automation\selenium\matchers\text\RegexMatcher.java
C:\GIT\sGIT\lyty-functional-tests\functional-tests\selenium\selenium-gwt-components-matchers\src\main\java\com\ihg\automation\selenium\matchers\component\IsInvalid.java
C:\GIT\sGIT\lyty-functional-tests\functional-tests\selenium\selenium-gwt-components-matchers\src\main\java\com\ihg\automation\selenium\matchers\text\EntityMatcherFactory.java
C:\GIT\sGIT\lyty-functional-tests\functional-tests\selenium\selenium-gwt-components-matchers\src\main\java\com\ihg\automation\selenium\matchers\component\HasBackgroundColor.java
C:\GIT\sGIT\lyty-functional-tests\functional-tests\selenium\selenium-gwt-components-matchers\src\main\java\com\ihg\automation\selenium\matchers\component\HasDefaultText.java
C:\GIT\sGIT\lyty-functional-tests\functional-tests\selenium\selenium-gwt-components-matchers\src\main\java\com\ihg\automation\selenium\matchers\component\ViewableMatcher.java
C:\GIT\sGIT\lyty-functional-tests\functional-tests\selenium\selenium-gwt-components-matchers\src\main\java\com\ihg\automation\selenium\matchers\component\HasSelectItems.java
C:\GIT\sGIT\lyty-functional-tests\functional-tests\selenium\selenium-gwt-components-matchers\src\main\java\com\ihg\automation\selenium\matchers\Waiter.java
C:\GIT\sGIT\lyty-functional-tests\functional-tests\selenium\selenium-gwt-components-matchers\src\main\java\com\ihg\automation\selenium\matchers\text\AsDouble.java
C:\GIT\sGIT\lyty-functional-tests\functional-tests\selenium\selenium-gwt-components-matchers\src\main\java\com\ihg\automation\selenium\matchers\component\ModeMatcher.java
C:\GIT\sGIT\lyty-functional-tests\functional-tests\selenium\selenium-gwt-components-matchers\src\main\java\com\ihg\automation\selenium\formatter\Converter.java
C:\GIT\sGIT\lyty-functional-tests\functional-tests\selenium\selenium-gwt-components-matchers\src\main\java\com\ihg\automation\selenium\matchers\component\HasRowColor.java
C:\GIT\sGIT\lyty-functional-tests\functional-tests\selenium\selenium-gwt-components-matchers\src\main\java\com\ihg\automation\selenium\matchers\text\AsFormattedMatcherBase.java
C:\GIT\sGIT\lyty-functional-tests\functional-tests\selenium\selenium-gwt-components-matchers\src\main\java\com\ihg\automation\selenium\matchers\component\IsDisplayedAndEnabled.java
C:\GIT\sGIT\lyty-functional-tests\functional-tests\selenium\selenium-gwt-components-matchers\src\main\java\com\ihg\automation\selenium\matchers\component\IsDisplayed.java
C:\GIT\sGIT\lyty-functional-tests\functional-tests\selenium\selenium-gwt-components-matchers\src\main\java\com\ihg\automation\selenium\matchers\component\ContainsSelectItems.java
