C:\GIT\sGIT\lyty-functional-tests\functional-tests\selenium\automation-service\src\main\java\com\ihg\crm\automation\service\common\DateUtils.java
C:\GIT\sGIT\lyty-functional-tests\functional-tests\selenium\automation-service\src\main\java\com\ihg\crm\automation\service\guest\RetrieveGuestRequestHelper.java
C:\GIT\sGIT\lyty-functional-tests\functional-tests\selenium\automation-service\src\main\java\com\ihg\crm\automation\service\common\ClientRequestInterceptor.java
C:\GIT\sGIT\lyty-functional-tests\functional-tests\selenium\automation-service\src\main\java\com\ihg\crm\automation\service\refdata\ConvertCurrenciesRequestHelper.java
