C:\GIT\sGIT\lyty-functional-tests\functional-tests\selenium\selenium-tests\selenium-tests-servicecenter-security\src\test\java\com\ihg\crm\automation\selenium\tests\servicecenter\security\unit\UnitOperationsAvailabilityFactory.java
C:\GIT\sGIT\lyty-functional-tests\functional-tests\selenium\selenium-tests\selenium-tests-servicecenter-security\src\test\java\com\ihg\crm\automation\selenium\tests\servicecenter\security\hotel\HotelRewardNightReimbursementFactoryTest.java
C:\GIT\sGIT\lyty-functional-tests\functional-tests\selenium\selenium-tests\selenium-tests-servicecenter-security\src\test\java\com\ihg\crm\automation\selenium\tests\servicecenter\security\copartner\CoPartnerAndMeetingFactoryTest.java
C:\GIT\sGIT\lyty-functional-tests\functional-tests\selenium\selenium-tests\selenium-tests-servicecenter-security\src\test\java\com\ihg\crm\automation\selenium\tests\servicecenter\security\copartner\CoPartnerAndMeetingFactory.java
C:\GIT\sGIT\lyty-functional-tests\functional-tests\selenium\selenium-tests\selenium-tests-servicecenter-security\src\test\java\com\ihg\crm\automation\selenium\tests\servicecenter\security\customer\CustomerCommunicationPreferencesFactoryTest.java
C:\GIT\sGIT\lyty-functional-tests\functional-tests\selenium\selenium-tests\selenium-tests-servicecenter-security\src\test\java\com\ihg\crm\automation\selenium\tests\servicecenter\security\events\OrderAvailabilityFactory.java
C:\GIT\sGIT\lyty-functional-tests\functional-tests\selenium\selenium-tests\selenium-tests-servicecenter-security\src\test\java\com\ihg\crm\automation\selenium\tests\servicecenter\security\catalog\CatalogViewAvailabilityFactory.java
C:\GIT\sGIT\lyty-functional-tests\functional-tests\selenium\selenium-tests\selenium-tests-servicecenter-security\src\test\java\com\ihg\crm\automation\selenium\tests\servicecenter\security\program\ProgramAvailabilityFactoryTest.java
C:\GIT\sGIT\lyty-functional-tests\functional-tests\selenium\selenium-tests\selenium-tests-servicecenter-security\src\test\java\com\ihg\crm\automation\selenium\tests\servicecenter\security\screenpop\ScreenPopAvailabilityFactory.java
C:\GIT\sGIT\lyty-functional-tests\functional-tests\selenium\selenium-tests\selenium-tests-servicecenter-security\src\test\java\com\ihg\crm\automation\selenium\tests\servicecenter\security\customer\CustomerPersonalInfoAvailabilityFactoryTest.java
C:\GIT\sGIT\lyty-functional-tests\functional-tests\selenium\selenium-tests\selenium-tests-servicecenter-security\src\test\java\com\ihg\crm\automation\selenium\tests\servicecenter\security\hotel\FlatFreeNightReimbursementFactory.java
C:\GIT\sGIT\lyty-functional-tests\functional-tests\selenium\selenium-tests\selenium-tests-servicecenter-security\src\test\java\com\ihg\crm\automation\selenium\tests\servicecenter\security\events\OrderAvailabilityFactoryTest.java
C:\GIT\sGIT\lyty-functional-tests\functional-tests\selenium\selenium-tests\selenium-tests-servicecenter-security\src\test\java\com\ihg\crm\automation\selenium\tests\servicecenter\security\hotel\HotelRewardNightReimbursementFactory.java
C:\GIT\sGIT\lyty-functional-tests\functional-tests\selenium\selenium-tests\selenium-tests-servicecenter-security\src\test\java\com\ihg\crm\automation\selenium\tests\servicecenter\security\customer\CustomerPersonalInfoAvailabilityFactory.java
C:\GIT\sGIT\lyty-functional-tests\functional-tests\selenium\selenium-tests\selenium-tests-servicecenter-security\src\test\java\com\ihg\crm\automation\selenium\tests\servicecenter\security\events\StayAvailabilityFactoryTest.java
C:\GIT\sGIT\lyty-functional-tests\functional-tests\selenium\selenium-tests\selenium-tests-servicecenter-security\src\test\java\com\ihg\crm\automation\selenium\tests\servicecenter\security\preferences\StayPreferencesAvailabilityFactoryTest.java
C:\GIT\sGIT\lyty-functional-tests\functional-tests\selenium\selenium-tests\selenium-tests-servicecenter-security\src\test\java\com\ihg\crm\automation\selenium\tests\servicecenter\security\PermissionConstant.java
C:\GIT\sGIT\lyty-functional-tests\functional-tests\selenium\selenium-tests\selenium-tests-servicecenter-security\src\test\java\com\ihg\crm\automation\selenium\tests\servicecenter\security\profile\ProfileManagementFactory.java
C:\GIT\sGIT\lyty-functional-tests\functional-tests\selenium\selenium-tests\selenium-tests-servicecenter-security\src\test\java\com\ihg\crm\automation\selenium\tests\servicecenter\security\program\ProgramAvailabilityFactory.java
C:\GIT\sGIT\lyty-functional-tests\functional-tests\selenium\selenium-tests\selenium-tests-servicecenter-security\src\test\java\com\ihg\crm\automation\selenium\tests\servicecenter\security\voucher\VoucherAvailabilityFactoryTest.java
C:\GIT\sGIT\lyty-functional-tests\functional-tests\selenium\selenium-tests\selenium-tests-servicecenter-security\src\test\java\com\ihg\crm\automation\selenium\tests\servicecenter\security\customer\CustomerAccountHistoryGuestRecordFactory.java
C:\GIT\sGIT\lyty-functional-tests\functional-tests\selenium\selenium-tests\selenium-tests-servicecenter-security\src\test\java\com\ihg\crm\automation\selenium\tests\servicecenter\security\hotel\InHotelOtherCertificatesFactoryTest.java
C:\GIT\sGIT\lyty-functional-tests\functional-tests\selenium\selenium-tests\selenium-tests-servicecenter-security\src\test\java\com\ihg\crm\automation\selenium\tests\servicecenter\security\catalog\CatalogAvailabilityFactoryTest.java
C:\GIT\sGIT\lyty-functional-tests\functional-tests\selenium\selenium-tests\selenium-tests-servicecenter-security\src\test\java\com\ihg\crm\automation\selenium\tests\servicecenter\security\events\OfferAndAllEventFactory.java
C:\GIT\sGIT\lyty-functional-tests\functional-tests\selenium\selenium-tests\selenium-tests-servicecenter-security\src\test\java\com\ihg\crm\automation\selenium\tests\servicecenter\security\voucher\VoucherAvailabilityFactory.java
C:\GIT\sGIT\lyty-functional-tests\functional-tests\selenium\selenium-tests\selenium-tests-servicecenter-security\src\test\java\com\ihg\crm\automation\selenium\tests\servicecenter\security\profile\ProfileManagementFactoryTest.java
C:\GIT\sGIT\lyty-functional-tests\functional-tests\selenium\selenium-tests\selenium-tests-servicecenter-security\src\test\java\com\ihg\crm\automation\selenium\tests\servicecenter\security\unit\UnitOperationsAvailabilityFactoryTest.java
C:\GIT\sGIT\lyty-functional-tests\functional-tests\selenium\selenium-tests\selenium-tests-servicecenter-security\src\test\java\com\ihg\crm\automation\selenium\tests\servicecenter\security\events\BusinessAvailabilityFactory.java
C:\GIT\sGIT\lyty-functional-tests\functional-tests\selenium\selenium-tests\selenium-tests-servicecenter-security\src\test\java\com\ihg\crm\automation\selenium\tests\servicecenter\security\freenight\FreeNightAvailabilityFactory.java
C:\GIT\sGIT\lyty-functional-tests\functional-tests\selenium\selenium-tests\selenium-tests-servicecenter-security\src\test\java\com\ihg\crm\automation\selenium\tests\servicecenter\security\rewardnight\RewardNightAvailabilityFactory.java
C:\GIT\sGIT\lyty-functional-tests\functional-tests\selenium\selenium-tests\selenium-tests-servicecenter-security\src\test\java\com\ihg\crm\automation\selenium\tests\servicecenter\security\rewardnight\RewardNightAvailabilityFactoryTest.java
C:\GIT\sGIT\lyty-functional-tests\functional-tests\selenium\selenium-tests\selenium-tests-servicecenter-security\src\test\java\com\ihg\crm\automation\selenium\tests\servicecenter\security\SecurityMatrix.java
C:\GIT\sGIT\lyty-functional-tests\functional-tests\selenium\selenium-tests\selenium-tests-servicecenter-security\src\test\java\com\ihg\crm\automation\selenium\tests\servicecenter\security\LoginLogout.java
C:\GIT\sGIT\lyty-functional-tests\functional-tests\selenium\selenium-tests\selenium-tests-servicecenter-security\src\test\java\com\ihg\crm\automation\selenium\tests\servicecenter\security\customer\CustomerCommunicationPreferencesFactory.java
C:\GIT\sGIT\lyty-functional-tests\functional-tests\selenium\selenium-tests\selenium-tests-servicecenter-security\src\test\java\com\ihg\crm\automation\selenium\tests\servicecenter\security\enroll\TopMenuEnrollItemAvailabilityFactory.java
C:\GIT\sGIT\lyty-functional-tests\functional-tests\selenium\selenium-tests\selenium-tests-servicecenter-security\src\test\java\com\ihg\crm\automation\selenium\tests\servicecenter\security\events\BusinessAvailabilityFactoryTest.java
C:\GIT\sGIT\lyty-functional-tests\functional-tests\selenium\selenium-tests\selenium-tests-servicecenter-security\src\test\java\com\ihg\crm\automation\selenium\tests\servicecenter\security\hotel\FlatFreeNightReimbursementFactoryTest.java
C:\GIT\sGIT\lyty-functional-tests\functional-tests\selenium\selenium-tests\selenium-tests-servicecenter-security\src\test\java\com\ihg\crm\automation\selenium\tests\servicecenter\security\customer\CustomerAccountHistoryGuestRecordFactoryTest.java
C:\GIT\sGIT\lyty-functional-tests\functional-tests\selenium\selenium-tests\selenium-tests-servicecenter-security\src\test\java\com\ihg\crm\automation\selenium\tests\servicecenter\security\events\StayAvailabilityFactory.java
C:\GIT\sGIT\lyty-functional-tests\functional-tests\selenium\selenium-tests\selenium-tests-servicecenter-security\src\test\java\com\ihg\crm\automation\selenium\tests\servicecenter\security\freenight\FreeNightAvailabilityFactoryTest.java
C:\GIT\sGIT\lyty-functional-tests\functional-tests\selenium\selenium-tests\selenium-tests-servicecenter-security\src\test\java\com\ihg\crm\automation\selenium\tests\servicecenter\security\preferences\StayPreferencesAvailabilityFactory.java
C:\GIT\sGIT\lyty-functional-tests\functional-tests\selenium\selenium-tests\selenium-tests-servicecenter-security\src\test\java\com\ihg\crm\automation\selenium\tests\servicecenter\security\screenpop\ScreenPopAvailabilityFactoryTest.java
C:\GIT\sGIT\lyty-functional-tests\functional-tests\selenium\selenium-tests\selenium-tests-servicecenter-security\src\test\java\com\ihg\crm\automation\selenium\tests\servicecenter\security\events\OfferAndAllEventFactoryTest.java
C:\GIT\sGIT\lyty-functional-tests\functional-tests\selenium\selenium-tests\selenium-tests-servicecenter-security\src\test\java\com\ihg\crm\automation\selenium\tests\servicecenter\security\enroll\TopMenuEnrollItemAvailabilityFactoryTest.java
C:\GIT\sGIT\lyty-functional-tests\functional-tests\selenium\selenium-tests\selenium-tests-servicecenter-security\src\test\java\com\ihg\crm\automation\selenium\tests\servicecenter\security\hotel\InHotelOtherCertificatesFactory.java
