com\ihg\crm\automation\selenium\tests\sanitycheck\servicecenter\LoginLogout.class
com\ihg\crm\automation\selenium\tests\sanitycheck\servicecenter\sanitycheck\EnrollmentConfigurationTest.class
com\ihg\crm\automation\selenium\tests\sanitycheck\servicecenter\sanitycheck\SignOffTest.class
com\ihg\crm\automation\selenium\tests\sanitycheck\servicecenter\sanitycheck\SearchTest.class
com\ihg\crm\automation\selenium\tests\sanitycheck\servicecenter\sanitycheck\ProfileTest.class
com\ihg\crm\automation\selenium\tests\sanitycheck\servicecenter\sanitycheck\BusinessAndMeetingEventTest.class
com\ihg\crm\automation\selenium\tests\sanitycheck\servicecenter\sanitycheck\CatalogTest.class
com\ihg\crm\automation\selenium\tests\sanitycheck\servicecenter\sanitycheck\ProgramInfoTest.class
com\ihg\crm\automation\selenium\tests\sanitycheck\servicecenter\sanitycheck\EventsTabsTest.class
com\ihg\crm\automation\selenium\tests\sanitycheck\servicecenter\sanitycheck\TopMenuTest.class
