com\ihg\automation\selenium\common\offer\OfferFactory.class
com\ihg\automation\selenium\common\member\MeetingPhone.class
com\ihg\automation\selenium\common\business\AllPastStaysGrid.class
com\ihg\automation\selenium\common\order\OrderFactory.class
com\ihg\automation\selenium\common\pages\login\LoginErrorBox.class
com\ihg\automation\selenium\common\ProgramsGrid.class
com\ihg\automation\selenium\common\communication\ContactPermissionItem.class
com\ihg\automation\selenium\common\catalog\CatalogItem$Builder.class
com\ihg\automation\selenium\common\types\Gender.class
com\ihg\automation\selenium\common\event\CurrencyAmountFieldsAware.class
com\ihg\automation\selenium\common\types\program\MeetingLevel.class
com\ihg\automation\selenium\common\contact\Phone.class
com\ihg\automation\selenium\common\member\MemberAlliance.class
com\ihg\automation\selenium\common\stay\Revenue.class
com\ihg\automation\selenium\common\types\WrittenLanguage.class
com\ihg\automation\selenium\common\business\RoomsTab.class
com\ihg\automation\selenium\common\earning\EventEarningGridRow.class
com\ihg\automation\selenium\common\event\EventTransactionType$TierLevel.class
com\ihg\automation\selenium\common\hotel\HotelAddress.class
com\ihg\automation\selenium\common\voucher\VoucherOrderPopUp.class
com\ihg\automation\selenium\common\payment\CurrencyAmount.class
com\ihg\automation\selenium\common\MeetingDetails.class
com\ihg\automation\selenium\common\types\address\ZipLabel.class
com\ihg\automation\selenium\common\types\GoodwillReason.class
com\ihg\automation\selenium\common\business\MeetingRevenueDetails.class
com\ihg\automation\selenium\common\enroll\DuplicateEmailGrid.class
com\ihg\automation\selenium\common\types\program\ProgramLevel.class
com\ihg\automation\selenium\common\types\address\Locality1Label.class
com\ihg\automation\selenium\common\personal\PhoneContact.class
com\ihg\automation\selenium\common\types\name\GivenLabel.class
com\ihg\automation\selenium\common\order\OrderDetailsBase.class
com\ihg\automation\selenium\common\business\StaySearch.class
com\ihg\automation\selenium\common\history\EventAuditConstant$Stay$Booking.class
com\ihg\automation\selenium\common\payment\BenefitsDetailGridRow$BenefitsDetailGridCell.class
com\ihg\automation\selenium\common\hotel\HotelCertificateStatus.class
com\ihg\automation\selenium\common\event\EventTransactionType.class
com\ihg\automation\selenium\common\personal\ContactListBase.class
com\ihg\automation\selenium\common\event\EventTransactionType$Profile.class
com\ihg\automation\selenium\common\member\CreditCard.class
com\ihg\automation\selenium\common\business\BusinessRevenueView.class
com\ihg\automation\selenium\common\types\address\Locality2Label.class
com\ihg\automation\selenium\common\business\GuestRoomsFields.class
com\ihg\automation\selenium\common\offer\Offer.class
com\ihg\automation\selenium\common\types\EmailFormat.class
com\ihg\automation\selenium\common\types\program\RewardClubLevelReason.class
com\ihg\automation\selenium\common\member\OccupationInfo.class
com\ihg\automation\selenium\common\UI.class
com\ihg\automation\selenium\common\types\address\RegionTaiwanRoman.class
com\ihg\automation\selenium\common\history\EventHistoryGridRow.class
com\ihg\automation\selenium\common\stay\BookingDetails.class
com\ihg\automation\selenium\common\business\EventInformationFields.class
com\ihg\automation\selenium\common\contact\ContactBase.class
com\ihg\automation\selenium\common\event\EventTransactionType$FreeNight.class
com\ihg\automation\selenium\common\pages\NavigatePage.class
com\ihg\automation\selenium\common\stay\Revenues.class
com\ihg\automation\selenium\common\payment\Payment.class
com\ihg\automation\selenium\common\types\program\AmbassadorLevel.class
com\ihg\automation\selenium\common\business\AllPastStaysGridRow.class
com\ihg\automation\selenium\common\enroll\CustomerInfoEnroll.class
com\ihg\automation\selenium\common\pages\PaymentMethod.class
com\ihg\automation\selenium\common\LeftPanelBase.class
com\ihg\automation\selenium\common\name\PersonNameFields.class
com\ihg\automation\selenium\common\earning\EventEarningDetailsTab.class
com\ihg\automation\selenium\common\types\program\Program.class
com\ihg\automation\selenium\common\order\Voucher.class
com\ihg\automation\selenium\common\order\OrderDetailsEditBase.class
com\ihg\automation\selenium\common\member\MemberPopulateHelper.class
com\ihg\automation\selenium\common\ProgramGridCell.class
com\ihg\automation\selenium\common\earning\EventEarningAmount.class
com\ihg\automation\selenium\common\freenight\VoucherRedemption.class
com\ihg\automation\selenium\common\types\program\ProgramStatus.class
com\ihg\automation\selenium\common\types\program\BusinessRewardLevel.class
com\ihg\automation\selenium\common\business\BusinessRewardsDetails.class
com\ihg\automation\selenium\common\payment\CreditCardPaymentContainer.class
com\ihg\automation\selenium\common\personal\PhoneContactList.class
com\ihg\automation\selenium\common\types\name\SalutationLabel.class
com\ihg\automation\selenium\common\payment\ProgramBenefitDetailsPopUp.class
com\ihg\automation\selenium\common\member\AlliancePopulateHelper.class
com\ihg\automation\selenium\common\BusinessRewardsGridRow.class
com\ihg\automation\selenium\common\event\EventTransactionType$Order.class
com\ihg\automation\selenium\common\member\GuestEmail.class
com\ihg\automation\selenium\common\order\VoucherRuleType.class
com\ihg\automation\selenium\common\business\EventSummaryTab.class
com\ihg\automation\selenium\common\reward\RewardNight.class
com\ihg\automation\selenium\common\event\EventTransactionType$BusinessRewards.class
com\ihg\automation\selenium\common\event\EventTransactionType$RewardNight.class
com\ihg\automation\selenium\common\pages\MultiModeBase.class
com\ihg\automation\selenium\common\business\OffersFieldsBase.class
com\ihg\automation\selenium\common\event\EventTransactionType$Deposit.class
com\ihg\automation\selenium\common\CustomerInfoFlags.class
com\ihg\automation\selenium\common\payment\CreditCardPayment.class
com\ihg\automation\selenium\common\event\SourceFactory.class
com\ihg\automation\selenium\common\history\EventAuditConstant$BusinessReward$Offer.class
com\ihg\automation\selenium\common\personal\EmailContact.class
com\ihg\automation\selenium\common\business\BusinessEventType.class
com\ihg\automation\selenium\common\business\OffersFieldsView.class
com\ihg\automation\selenium\common\event\AllEventsRow.class
com\ihg\automation\selenium\common\types\name\NameConfigurationBean.class
com\ihg\automation\selenium\common\enroll\AdditionalInformation.class
com\ihg\automation\selenium\common\hotel\HotelNightDetails.class
com\ihg\automation\selenium\common\AddressNotMailableDialog.class
com\ihg\automation\selenium\common\hotel\AdvancedHotelSearch.class
com\ihg\automation\selenium\common\history\EventHistoryTabAware.class
com\ihg\automation\selenium\common\business\BusinessRevenueBean.class
com\ihg\automation\selenium\common\order\VoucherRule.class
com\ihg\automation\selenium\common\event\EventGridRowContainerWithDetails.class
com\ihg\automation\selenium\common\offer\GuestOffer.class
com\ihg\automation\selenium\common\business\BusinessOffer.class
com\ihg\automation\selenium\common\member\AnnualActivity.class
com\ihg\automation\selenium\common\types\name\Title.class
com\ihg\automation\selenium\common\EmailNotMailableDialog.class
com\ihg\automation\selenium\common\hotel\AdvancedHotelSearchGridRow.class
com\ihg\automation\selenium\common\order\VoucherOrder.class
com\ihg\automation\selenium\common\hotel\HotelBrandInfo.class
com\ihg\automation\selenium\common\Constant.class
com\ihg\automation\selenium\common\pages\SearchBase.class
com\ihg\automation\selenium\common\payment\CashPaymentContainer.class
com\ihg\automation\selenium\common\preferences\RatePreferencesType.class
com\ihg\automation\selenium\common\event\EventTransactionType$Goodwill.class
com\ihg\automation\selenium\common\member\MemberJdbcUtils.class
com\ihg\automation\selenium\common\order\DeliveryOption.class
com\ihg\automation\selenium\common\history\EventAuditConstant$BusinessReward$Event.class
com\ihg\automation\selenium\common\offer\Offer$1.class
com\ihg\automation\selenium\common\offer\SubOffers.class
com\ihg\automation\selenium\common\types\program\EmployeeLevel.class
com\ihg\automation\selenium\common\types\address\RegionTaiwanNative.class
com\ihg\automation\selenium\common\CoBrandedCreditCard.class
com\ihg\automation\selenium\common\pages\Populate.class
com\ihg\automation\selenium\common\EventSource.class
com\ihg\automation\selenium\common\annual\ActivityAmount.class
com\ihg\automation\selenium\common\business\EventStaysGrid.class
com\ihg\automation\selenium\common\types\address\RegionLabel.class
com\ihg\automation\selenium\common\types\name\SurnameLabel.class
com\ihg\automation\selenium\common\types\address\AddressConfiguration.class
com\ihg\automation\selenium\common\offer\Offer$Builder.class
com\ihg\automation\selenium\common\Revenue.class
com\ihg\automation\selenium\common\types\name\Salutation.class
com\ihg\automation\selenium\common\enroll\SuccessEnrolmentPopUp.class
com\ihg\automation\selenium\common\hotel\AdvancedHotelSearchGrid.class
com\ihg\automation\selenium\common\business\BusinessRevenue.class
com\ihg\automation\selenium\common\types\program\TierLevelExpiration.class
com\ihg\automation\selenium\common\pages\ClosablePopUpBase.class
com\ihg\automation\selenium\common\business\MeetingFields.class
com\ihg\automation\selenium\common\types\address\AddressType.class
com\ihg\automation\selenium\common\business\DiscretionaryPointsFields.class
com\ihg\automation\selenium\common\communication\ContactPermissionItems.class
com\ihg\automation\selenium\common\pages\program\RewardClubTierLevelActivityRow$TierLevelCell.class
com\ihg\automation\selenium\common\enroll\EnrollmentPageBase.class
com\ihg\automation\selenium\common\hotel\HotelDetails.class
com\ihg\automation\selenium\common\member\AmbassadorJdbcUtils.class
com\ihg\automation\selenium\common\types\name\MiddleLabel.class
com\ihg\automation\selenium\common\types\address\Region.class
com\ihg\automation\selenium\common\member\AmbassadorOfferCode.class
com\ihg\automation\selenium\common\types\program\TierLevelFlag.class
com\ihg\automation\selenium\common\enroll\DuplicateEmailGridRow$DuplicateEmailCell.class
com\ihg\automation\selenium\common\business\GuestRoom.class
com\ihg\automation\selenium\common\contact\Sms.class
com\ihg\automation\selenium\common\freenight\VoucherCancelReason.class
com\ihg\automation\selenium\common\contact\Email.class
com\ihg\automation\selenium\common\types\program\DiningRewardLevel.class
com\ihg\automation\selenium\common\award\AwardDetails.class
com\ihg\automation\selenium\common\stay\Stay.class
com\ihg\automation\selenium\common\business\BusinessRewardsGridRowContainer.class
com\ihg\automation\selenium\common\enroll\PossibleDuplicateFoundPopUp.class
com\ihg\automation\selenium\common\types\Partner.class
com\ihg\automation\selenium\common\event\AllEventsRowConverter.class
com\ihg\automation\selenium\common\deposit\Deposit.class
com\ihg\automation\selenium\common\earning\AmountFieldBase.class
com\ihg\automation\selenium\common\history\EventAuditConstant$BusinessReward$Discretionary.class
com\ihg\automation\selenium\common\pages\SavePopUpBase.class
com\ihg\automation\selenium\common\payment\CheckPayment.class
com\ihg\automation\selenium\common\billing\EventBillingDetailsTab.class
com\ihg\automation\selenium\common\member\AmbassadorUtils.class
com\ihg\automation\selenium\common\business\TotalEligibleRoomRevenue.class
com\ihg\automation\selenium\common\history\EventAuditConstant$Order.class
com\ihg\automation\selenium\common\hotel\HotelNight.class
com\ihg\automation\selenium\common\ProgramInfoPanel.class
com\ihg\automation\selenium\common\event\Source.class
com\ihg\automation\selenium\common\types\program\AlternateLoyaltyIDType.class
com\ihg\automation\selenium\common\contact\MeetingPhoneFields.class
com\ihg\automation\selenium\common\event\EventTransactionType$Membership.class
com\ihg\automation\selenium\common\types\program\GuestAccountLevel.class
com\ihg\automation\selenium\common\history\EventHistoryRecords.class
com\ihg\automation\selenium\common\payment\CashPayment.class
com\ihg\automation\selenium\common\billing\EventBillingDetail.class
com\ihg\automation\selenium\common\event\EventTransactionType$Loyalty.class
com\ihg\automation\selenium\common\types\address\ShippingInfo.class
com\ihg\automation\selenium\common\communication\Communication.class
com\ihg\automation\selenium\common\history\EventAuditConstant$Stay$Revenue.class
com\ihg\automation\selenium\common\payment\PaymentDetailsAware.class
com\ihg\automation\selenium\common\types\PhoneSubType.class
com\ihg\automation\selenium\common\communication\CommunicationPreferencesConstants.class
com\ihg\automation\selenium\common\RewardClubGridRow.class
com\ihg\automation\selenium\common\business\BusinessStatus.class
com\ihg\automation\selenium\common\history\EventAuditConstant$BusinessReward.class
com\ihg\automation\selenium\common\types\program\RewardClubLevel.class
com\ihg\automation\selenium\common\payment\PaymentDetails.class
com\ihg\automation\selenium\common\types\name\DegreeLabel.class
com\ihg\automation\selenium\common\payment\PaymentFactory.class
com\ihg\automation\selenium\common\personal\SocialIdType.class
com\ihg\automation\selenium\common\hotel\HotelCertificate.class
com\ihg\automation\selenium\common\history\EventHistoryGridRow$EventHistoryCell.class
com\ihg\automation\selenium\common\member\GuestContact.class
com\ihg\automation\selenium\common\catalog\CatalogItem.class
com\ihg\automation\selenium\common\event\EventTransactionType$PointExpiration.class
com\ihg\automation\selenium\common\catalog\CatalogItem$1.class
com\ihg\automation\selenium\common\pages\SubmitPopUpBase.class
com\ihg\automation\selenium\common\member\LifetimeActivity.class
com\ihg\automation\selenium\common\order\OrderDetailsViewBase.class
com\ihg\automation\selenium\common\event\SearchButtonBar.class
com\ihg\automation\selenium\common\business\EventDetailsFields.class
com\ihg\automation\selenium\common\business\AllPastStaysGridRow$AllPastStaysCell.class
com\ihg\automation\selenium\common\payment\BenefitsDetailGrid.class
com\ihg\automation\selenium\common\pages\CreditCardType.class
com\ihg\automation\selenium\common\pages\QualifyingWarningDialog.class
com\ihg\automation\selenium\common\history\EventAuditConstant$BusinessReward$Meeting.class
com\ihg\automation\selenium\common\freenight\CancelReason.class
com\ihg\automation\selenium\common\member\DiningRewardOfferCode.class
com\ihg\automation\selenium\common\member\GuestName.class
com\ihg\automation\selenium\common\ProgramGridRow.class
com\ihg\automation\selenium\common\event\EventTransactionType$Stay.class
com\ihg\automation\selenium\common\order\VoucherStatusType.class
com\ihg\automation\selenium\common\enroll\EnrollProgramContainer.class
com\ihg\automation\selenium\common\history\EventAuditConstant.class
com\ihg\automation\selenium\common\pages\PaymentType.class
com\ihg\automation\selenium\common\types\program\ProgramLevelReason.class
com\ihg\automation\selenium\common\EventSourceAware.class
com\ihg\automation\selenium\common\enroll\CustomerInfoCommonFieldsAware.class
com\ihg\automation\selenium\common\business\BusinessEvent.class
com\ihg\automation\selenium\common\business\BusinessRewardsEventDetailsPopUp.class
com\ihg\automation\selenium\common\business\MeetingDetails.class
com\ihg\automation\selenium\common\enroll\DuplicateEmailGridRow.class
com\ihg\automation\selenium\common\billing\EventBillingAmount.class
com\ihg\automation\selenium\common\types\program\HotelLevel.class
com\ihg\automation\selenium\common\pages\program\EmployeeRateEligibility.class
com\ihg\automation\selenium\common\event\AllEventsRowFactory.class
com\ihg\automation\selenium\common\pages\login\SingleSignOn.class
com\ihg\automation\selenium\common\personal\SmsContact.class
com\ihg\automation\selenium\common\types\address\RegionChinaRoman.class
com\ihg\automation\selenium\common\history\EventAuditConstant$Stay.class
com\ihg\automation\selenium\common\order\ShippingInfoEdit.class
com\ihg\automation\selenium\common\business\DiscretionaryPoints.class
com\ihg\automation\selenium\common\member\DiningRewardAward.class
com\ihg\automation\selenium\common\member\Member.class
com\ihg\automation\selenium\common\business\OffersFieldsEdit.class
com\ihg\automation\selenium\common\history\EventHistoryGrid.class
com\ihg\automation\selenium\common\pages\login\TopUserSection.class
com\ihg\automation\selenium\common\earning\EventEarningGrid.class
com\ihg\automation\selenium\common\name\PersonNameEnrollFields.class
com\ihg\automation\selenium\common\hotel\HotelDetailsPopUp.class
com\ihg\automation\selenium\common\member\GuestAddress.class
com\ihg\automation\selenium\common\history\EventAuditConstant$BusinessReward$Room.class
com\ihg\automation\selenium\common\types\LabelEnumAware.class
com\ihg\automation\selenium\common\earning\EventEarningTabAware.class
com\ihg\automation\selenium\common\hotel\AdvancedHotelSearchGridRow$AdvancedHotelSearchCell.class
com\ihg\automation\selenium\common\member\MemberJdbcUtils$2.class
com\ihg\automation\selenium\common\types\ExtendReason.class
com\ihg\automation\selenium\common\preferences\TravelProfileType.class
com\ihg\automation\selenium\common\personal\EmailContactList.class
com\ihg\automation\selenium\common\history\EventHistoryTab.class
com\ihg\automation\selenium\common\types\name\Degree.class
com\ihg\automation\selenium\common\types\program\AmbassadorLevelReason.class
com\ihg\automation\selenium\common\billing\EventBillingTabAware.class
com\ihg\automation\selenium\common\business\TotalEventAwardItem.class
com\ihg\automation\selenium\common\payment\PaymentDetailsPopUp.class
com\ihg\automation\selenium\common\types\EmailType.class
com\ihg\automation\selenium\common\hotel\AdvancedHotelSearchGridRowContainer.class
com\ihg\automation\selenium\common\order\ShippingInfoBase.class
com\ihg\automation\selenium\common\enroll\CustomerInfo.class
com\ihg\automation\selenium\common\pages\program\RewardClubTierLevelActivityGrid.class
com\ihg\automation\selenium\common\enroll\DuplicateEmailFoundPopUp.class
com\ihg\automation\selenium\common\hotel\AdvancedHotelSearchPopUp.class
com\ihg\automation\selenium\common\communication\MarketingPreferences.class
com\ihg\automation\selenium\common\payment\BenefitsDetailGridRow.class
com\ihg\automation\selenium\common\earning\EventEarningGridRow$EventEarningCell.class
com\ihg\automation\selenium\common\name\PersonNameAware.class
com\ihg\automation\selenium\common\history\EventAuditConstant$Stay$Guest.class
com\ihg\automation\selenium\common\AmountFieldsAware.class
com\ihg\automation\selenium\common\pages\program\NightGridRowContainer.class
com\ihg\automation\selenium\common\event\EarningEventFactory.class
com\ihg\automation\selenium\common\order\Order.class
com\ihg\automation\selenium\common\PointAwardsStatus.class
com\ihg\automation\selenium\common\pages\program\RewardClubTierLevelActivityGrid$TierLevelAccumulator.class
com\ihg\automation\selenium\common\types\PhoneType.class
com\ihg\automation\selenium\common\Channel.class
com\ihg\automation\selenium\common\event\EventTransactionType$Voucher.class
com\ihg\automation\selenium\common\SiteHelperBase.class
com\ihg\automation\selenium\common\pages\Verify.class
com\ihg\automation\selenium\common\pages\VerifyMultiMode.class
com\ihg\automation\selenium\common\types\name\NameSuffix.class
com\ihg\automation\selenium\common\order\ShippingInfoView.class
com\ihg\automation\selenium\common\order\VoucherOrderStatus.class
com\ihg\automation\selenium\common\personal\EditableComponent.class
com\ihg\automation\selenium\common\payment\CheckPaymentContainer.class
com\ihg\automation\selenium\common\types\program\KarmaLevel.class
com\ihg\automation\selenium\common\pages\PopUpBase.class
com\ihg\automation\selenium\common\types\address\RegionChinaNative.class
com\ihg\automation\selenium\common\event\SearchAware.class
com\ihg\automation\selenium\common\types\program\KarmaLevelReason.class
com\ihg\automation\selenium\common\types\program\ProgramStatusReason.class
com\ihg\automation\selenium\common\stay\RevenueConstants.class
com\ihg\automation\selenium\common\communication\SmsMobileTextingMarketingPreferences.class
com\ihg\automation\selenium\common\types\Currency.class
com\ihg\automation\selenium\common\history\EventAuditConstant$RewardNight.class
com\ihg\automation\selenium\common\unit\MemberFieldsAware.class
com\ihg\automation\selenium\common\freenight\GoodwillReason.class
com\ihg\automation\selenium\common\event\EventSourceExtended.class
com\ihg\automation\selenium\common\freenight\Redemption.class
com\ihg\automation\selenium\common\stay\AdjustReasons.class
com\ihg\automation\selenium\common\contact\Address.class
com\ihg\automation\selenium\common\member\PersonalInfo.class
com\ihg\automation\selenium\common\pages\LabelContainerBase.class
com\ihg\automation\selenium\common\event\EventTransactionType$Offer.class
com\ihg\automation\selenium\common\types\name\NameConfiguration.class
com\ihg\automation\selenium\common\personal\EditableContactBase.class
com\ihg\automation\selenium\common\business\EventStaysGridRow$EventStaysCell.class
com\ihg\automation\selenium\common\enroll\EmailConstant.class
com\ihg\automation\selenium\common\name\PersonNameCustomerFields.class
com\ihg\automation\selenium\common\business\TotalEventAwardFields.class
com\ihg\automation\selenium\common\types\address\AddressConfigurationBean.class
com\ihg\automation\selenium\common\CustomerInfoPanel.class
com\ihg\automation\selenium\common\order\OrderDetailsTabBase.class
com\ihg\automation\selenium\common\event\EventTransactionType$Meeting.class
com\ihg\automation\selenium\common\member\GuestPhone.class
com\ihg\automation\selenium\common\pages\program\PointGridRowContainer.class
com\ihg\automation\selenium\common\ProgramCounter.class
com\ihg\automation\selenium\common\history\EventHistoryRecord.class
com\ihg\automation\selenium\common\BirthDate.class
com\ihg\automation\selenium\common\pages\login\RolePopUp.class
com\ihg\automation\selenium\common\pages\program\RewardClubTierLevelActivityRow.class
com\ihg\automation\selenium\common\types\Alliance.class
com\ihg\automation\selenium\common\business\EventStaysGridRow.class
com\ihg\automation\selenium\common\member\MemberJdbcUtils$1.class
com\ihg\automation\selenium\common\pages\login\HotelRolePopUp.class
com\ihg\automation\selenium\common\types\name\TitleLabel.class
com\ihg\automation\selenium\common\event\EarningEvent.class
com\ihg\automation\selenium\common\User.class
com\ihg\automation\selenium\common\personal\SmsContactList.class
com\ihg\automation\selenium\common\freenight\Status.class
com\ihg\automation\selenium\common\freenight\FreeNight.class
com\ihg\automation\selenium\common\order\OrderItem.class
com\ihg\automation\selenium\common\pages\TabCustomContainerBase.class
