com\ihg\crm\automation\selenium\tests\servicecenter\copperfield\GivePointAnotherMemberForClubTest.class
com\ihg\crm\automation\selenium\tests\servicecenter\programinfo\dr\UpdateDRProgramFlagsTest.class
com\ihg\crm\automation\selenium\tests\servicecenter\deposit\DepositTierLevelTest.class
com\ihg\crm\automation\selenium\tests\servicecenter\offer\ForceRegisterToTargetOfferWithMemberInContextTest.class
com\ihg\crm\automation\selenium\tests\servicecenter\programinfo\PurchaseTierLevelDowngradeToGoldTest.class
com\ihg\crm\automation\selenium\tests\servicecenter\smoke\SmokeTest.class
com\ihg\crm\automation\selenium\tests\servicecenter\deposit\DepositQualifyingPointsTest.class
com\ihg\crm\automation\selenium\tests\servicecenter\account\RemovedClosedStatusFromOpenTest.class
com\ihg\crm\automation\selenium\tests\servicecenter\deposit\DepositMilesTest.class
com\ihg\crm\automation\selenium\tests\servicecenter\order\CreateVoucherOrderEmailFulfillmentTest.class
com\ihg\crm\automation\selenium\tests\servicecenter\enrollment\EnrollmentToRcWithOfferTest.class
com\ihg\crm\automation\selenium\tests\servicecenter\programinfo\EmployeeRateEligibilityWithORMTest.class
com\ihg\crm\automation\selenium\tests\servicecenter\programinfo\ambassador\ManualUpgradeTierLevelRequiredReferringMemberTest.class
com\ihg\crm\automation\selenium\tests\servicecenter\programinfo\ambassador\IncompatibleAndExclusiveFlagsVerificationTest.class
com\ihg\crm\automation\selenium\tests\servicecenter\preferences\RatePreferencesTest.class
com\ihg\crm\automation\selenium\tests\servicecenter\programinfo\employee\UpdateEMPFlagTest.class
com\ihg\crm\automation\selenium\tests\servicecenter\programinfo\UpgradeRCTierLevelToPlatinumTest.class
com\ihg\crm\automation\selenium\tests\servicecenter\copperfield\RestoreButtonAvailabilityTest.class
com\ihg\crm\automation\selenium\tests\servicecenter\staticdata\FieldsConfigurationOnPersonalInfoPageTest.class
com\ihg\crm\automation\selenium\tests\servicecenter\search\SearchGuestByStayTest.class
com\ihg\crm\automation\selenium\tests\servicecenter\account\SendPINWithoutEmailTest.class
com\ihg\crm\automation\selenium\tests\servicecenter\copperfield\RestoreExpiredBalanceTest.class
com\ihg\crm\automation\selenium\tests\servicecenter\tierlevelexpiration\ProgramUpgradeToRAMTest.class
com\ihg\crm\automation\selenium\tests\servicecenter\programinfo\DowngradeRCTierLevelFromGoldTest.class
com\ihg\crm\automation\selenium\tests\servicecenter\thresholder\AchieveMaintainSpireByNightsTest.class
com\ihg\crm\automation\selenium\tests\servicecenter\programinfo\ambassador\ReactivateByComplimentaryTest.class
com\ihg\crm\automation\selenium\tests\servicecenter\tierlevelexpiration\NotOverridingLifetimeTest.class
com\ihg\crm\automation\selenium\tests\servicecenter\programinfo\UpgradeRCTierLevelToGoldTest.class
com\ihg\crm\automation\selenium\tests\servicecenter\tierlevelexpiration\KarmaTierLevelExpirationForSpireCurrentYearTest.class
com\ihg\crm\automation\selenium\tests\servicecenter\enrollment\karma\KarEnrollmentWithExistingRCMemberTest.class
com\ihg\crm\automation\selenium\tests\servicecenter\regiontransfer\RegionTransferTest.class
com\ihg\crm\automation\selenium\tests\servicecenter\uniqueemail\DuplicateEmailOnCatalogPageTest.class
com\ihg\crm\automation\selenium\tests\servicecenter\stay\IataNumberValidationTest.class
com\ihg\crm\automation\selenium\tests\servicecenter\staticdata\RetrieveCountriesTest.class
com\ihg\crm\automation\selenium\tests\servicecenter\deposit\DepositEligibilityByCountryTest.class
com\ihg\crm\automation\selenium\tests\servicecenter\copperfield\MileEarningTest.class
com\ihg\crm\automation\selenium\tests\servicecenter\thresholder\AchieveMaintainPlatinumByNightsTest.class
com\ihg\crm\automation\selenium\tests\servicecenter\hotel\FreeNightReimbursementOperationsTest.class
com\ihg\crm\automation\selenium\tests\servicecenter\enrollment\natives\EnrollmentWithMemberFromTaiwanTest.class
com\ihg\crm\automation\selenium\tests\servicecenter\stay\CreateMissingStayRewardNightTest.class
com\ihg\crm\automation\selenium\tests\servicecenter\enrollment\dr\EnrollmentByCreditCardTest.class
com\ihg\crm\automation\selenium\tests\servicecenter\enrollment\dr\ChineseMemberByCashTest.class
com\ihg\crm\automation\selenium\tests\servicecenter\freenight\FreeNightCommon.class
com\ihg\crm\automation\selenium\tests\servicecenter\enrollment\dr\NoneChineseMemberByCheckTest.class
com\ihg\crm\automation\selenium\tests\servicecenter\programinfo\ambassador\ReactivateByPointsTest.class
com\ihg\crm\automation\selenium\tests\servicecenter\stay\disqualified\StayNotEnoughQualifyingRevenueTest.class
com\ihg\crm\automation\selenium\tests\servicecenter\enrollment\br\ReactivateDeclinedMemberTest.class
com\ihg\crm\automation\selenium\tests\servicecenter\freenight\FreeNightsByOfferRegistrationTest.class
com\ihg\crm\automation\selenium\tests\servicecenter\programinfo\EmployeeRateEligibilityTest.class
com\ihg\crm\automation\selenium\tests\servicecenter\stay\CreateMissingStayTest.class
com\ihg\crm\automation\selenium\tests\servicecenter\account\KarmaCommentsTest.class
com\ihg\crm\automation\selenium\tests\servicecenter\rewardnight\UpdateRewardNightSuccessfulTest.class
com\ihg\crm\automation\selenium\tests\servicecenter\uniqueemail\DuplicateEmailOnEnrollmentPageTest.class
com\ihg\crm\automation\selenium\tests\servicecenter\tierlevelexpiration\AwardTierLevelByOfferTest.class
com\ihg\crm\automation\selenium\tests\servicecenter\programinfo\ambassador\ManualUpgradeOfTierLevelTest.class
com\ihg\crm\automation\selenium\tests\servicecenter\stay\CreateMissingStayMilesTest.class
com\ihg\crm\automation\selenium\tests\servicecenter\stay\EnrollingStayTest.class
com\ihg\crm\automation\selenium\tests\servicecenter\programinfo\ambassador\EnrollToAMBWithMemberContactsUpdateTest.class
com\ihg\crm\automation\selenium\tests\servicecenter\rewardnight\UpdateRewardNightUnsuccessfulTest.class
com\ihg\crm\automation\selenium\tests\servicecenter\copperfield\PointEarningAndRedemptionBase.class
com\ihg\crm\automation\selenium\tests\servicecenter\preferences\VerificationStayPreferencesTabTest.class
com\ihg\crm\automation\selenium\tests\servicecenter\enrollment\dr\EnrollToDrCommon.class
com\ihg\crm\automation\selenium\tests\servicecenter\programinfo\CoBrandedCreditCardsTest.class
com\ihg\crm\automation\selenium\tests\servicecenter\demo\DemoTest.class
com\ihg\crm\automation\selenium\tests\servicecenter\hotel\HotelCertificateOperationsTest.class
com\ihg\crm\automation\selenium\tests\servicecenter\enrollment\ambassador\EnrollmentExistingMemberByPointsTest.class
com\ihg\crm\automation\selenium\tests\servicecenter\unit\TransferQualifyingNightsUnitsBalanceTest.class
com\ihg\crm\automation\selenium\tests\servicecenter\enrollment\EnrollWithOfferCodeToPlatinumTest.class
com\ihg\crm\automation\selenium\tests\servicecenter\enrollment\EnrollmentWithPrePrintedMembershipIdTest.class
com\ihg\crm\automation\selenium\tests\servicecenter\enrollment\NamePopulateNegativeTest.class
com\ihg\crm\automation\selenium\tests\servicecenter\enrollment\karma\KAREnrollmentTest.class
com\ihg\crm\automation\selenium\tests\servicecenter\enrollment\natives\NonChineseMemberWithNativeLanguageTest.class
com\ihg\crm\automation\selenium\tests\servicecenter\enrollment\NegativeNamesDataProvider.class
com\ihg\crm\automation\selenium\tests\servicecenter\stay\disqualified\StayTotalRevenueExceedsMaximumAllowedTest.class
com\ihg\crm\automation\selenium\tests\servicecenter\commpref\VerifyStatusTest.class
com\ihg\crm\automation\selenium\tests\servicecenter\programinfo\ClosedMemberWithReasonsTest.class
com\ihg\crm\automation\selenium\tests\servicecenter\enrollment\HtlEnrollmentTest.class
com\ihg\crm\automation\selenium\tests\servicecenter\tierlevelexpiration\KarmaTierLevelExpirationForSpireLifetimeTest.class
com\ihg\crm\automation\selenium\tests\servicecenter\programinfo\karma\KarmaTierLevelTest.class
com\ihg\crm\automation\selenium\tests\servicecenter\preferences\VerificationBRTravelProfileTest.class
com\ihg\crm\automation\selenium\tests\servicecenter\offer\ExternalCampaignWithNightsEarnedTest.class
com\ihg\crm\automation\selenium\tests\servicecenter\hotel\HotelCertificateOptionalCriteriaSearchTest.class
com\ihg\crm\automation\selenium\tests\servicecenter\hotel\FreeNightReimbursementSearchTest.class
com\ihg\crm\automation\selenium\tests\servicecenter\programinfo\DowngradeSpireAmbassadorTierLevelTest.class
com\ihg\crm\automation\selenium\tests\servicecenter\deposit\DepositEligibilityByProgramLevelTest.class
com\ihg\crm\automation\selenium\tests\servicecenter\stay\disqualified\StayByIATATest.class
com\ihg\crm\automation\selenium\tests\servicecenter\preferences\DefaultCheckboxForTravelProfileOnUpdateTest.class
com\ihg\crm\automation\selenium\tests\servicecenter\programinfo\RcAddAllianceTest.class
com\ihg\crm\automation\selenium\tests\servicecenter\programinfo\dr\RenewByCreditCardTest.class
com\ihg\crm\automation\selenium\tests\servicecenter\preferences\CreditCardOnTravelProfileTest.class
com\ihg\crm\automation\selenium\tests\servicecenter\catalog\MultipleOrderTest.class
com\ihg\crm\automation\selenium\tests\servicecenter\commpref\RCMemberWithoutEmailAndPhoneTest.class
com\ihg\crm\automation\selenium\tests\servicecenter\enrollment\UpdateNameNegativeTest.class
com\ihg\crm\automation\selenium\tests\servicecenter\meeting\CreateMeetingTest.class
com\ihg\crm\automation\selenium\tests\servicecenter\programinfo\ambassador\AmbassadorCommon.class
com\ihg\crm\automation\selenium\tests\servicecenter\guest\AddSupplementaryAddressTest.class
com\ihg\crm\automation\selenium\tests\servicecenter\login\ValidLoginTest.class
com\ihg\crm\automation\selenium\tests\servicecenter\stay\CreateMissingStayBillingCommonTest.class
com\ihg\crm\automation\selenium\tests\servicecenter\thresholder\AchieveMaintainPlatinumByPointsTest.class
com\ihg\crm\automation\selenium\tests\servicecenter\enrollment\br\EnrollmentToBRExistingRCMemberTest.class
com\ihg\crm\automation\selenium\tests\servicecenter\order\DepositVoucherTest.class
com\ihg\crm\automation\selenium\tests\servicecenter\search\GuestSearchTest.class
com\ihg\crm\automation\selenium\tests\servicecenter\offer\RegisterToTargetOfferWithoutEndDateWithMemberInContextTest.class
com\ihg\crm\automation\selenium\tests\servicecenter\programinfo\dr\ReactivateByCreditCardTest.class
com\ihg\crm\automation\selenium\tests\servicecenter\copperfield\GivePointAnotherMemberBase.class
com\ihg\crm\automation\selenium\tests\servicecenter\enrollment\ambassador\EnrollmentByCashTest.class
com\ihg\crm\automation\selenium\tests\servicecenter\copperfield\VerificationDatesUtils.class
com\ihg\crm\automation\selenium\tests\servicecenter\offer\RegisterToTargetOfferWithoutEndDateWithoutMemberInContextTest.class
com\ihg\crm\automation\selenium\tests\servicecenter\unit\PurchaseGoldTierLevelTest.class
com\ihg\crm\automation\selenium\tests\servicecenter\meeting\MeetingBonusTest.class
com\ihg\crm\automation\selenium\tests\servicecenter\hotel\HotelCertificateSearchTest.class
com\ihg\crm\automation\selenium\tests\servicecenter\enrollment\RcEnrollmentWithFlagsTest.class
com\ihg\crm\automation\selenium\tests\servicecenter\enrollment\natives\EnrollmentWithMemberFromChinaTest.class
com\ihg\crm\automation\selenium\tests\servicecenter\enrollment\ambassador\EnrollmentByCheckTest.class
com\ihg\crm\automation\selenium\tests\servicecenter\enrollment\ambassador\EnrollmentByCreditCardTest.class
com\ihg\crm\automation\selenium\tests\servicecenter\stay\ForceQualifyingRateStayTest.class
com\ihg\crm\automation\selenium\tests\servicecenter\thresholder\AchieveLevelsByPointsTest.class
com\ihg\crm\automation\selenium\tests\servicecenter\account\AccountInformationTest.class
com\ihg\crm\automation\selenium\tests\servicecenter\account\DisplayDerivedGuestStatusTest.class
com\ihg\crm\automation\selenium\tests\servicecenter\stay\disqualified\StayTotalRoomRevenueExceedsMaximumAllowedTest.class
com\ihg\crm\automation\selenium\tests\servicecenter\enrollment\EarningPreferenceIsMilesTest.class
com\ihg\crm\automation\selenium\tests\servicecenter\enrollment\ambassador\AMBEnrollmentCommon.class
com\ihg\crm\automation\selenium\tests\servicecenter\preferences\DefaultCheckboxForTravelProfileOnCreateTest.class
com\ihg\crm\automation\selenium\tests\servicecenter\enrollment\ambassador\EnrollmentByComplimentaryTest.class
com\ihg\crm\automation\selenium\tests\servicecenter\enrollment\CancelRcEnrollmentTest.class
com\ihg\crm\automation\selenium\tests\servicecenter\programinfo\ChangeGuestAccountStatusTest.class
com\ihg\crm\automation\selenium\tests\servicecenter\programinfo\ambassador\RenewByCheckTest.class
com\ihg\crm\automation\selenium\tests\servicecenter\programinfo\karma\KarmaTierLevelForClosedMemberTest.class
com\ihg\crm\automation\selenium\tests\servicecenter\unit\TransferUnitsTest.class
com\ihg\crm\automation\selenium\tests\servicecenter\enrollment\EnrollmentWithReferredByTest.class
com\ihg\crm\automation\selenium\tests\servicecenter\stay\disqualified\OverlappingStayTest.class
com\ihg\crm\automation\selenium\tests\servicecenter\tierlevelexpiration\ExpDateMoreThanRuleAndDepositHasTest.class
com\ihg\crm\automation\selenium\tests\servicecenter\unit\GoodwillUnitsTest.class
com\ihg\crm\automation\selenium\tests\servicecenter\unit\TryToTransferNegativeBalanceTest.class
com\ihg\crm\automation\selenium\tests\servicecenter\commpref\MarkPhoneAsInvalidTest.class
com\ihg\crm\automation\selenium\tests\servicecenter\hotel\HotelCertificateUpdateAcceptCancelTest.class
com\ihg\crm\automation\selenium\tests\servicecenter\order\VoucherOrderNegativeTest.class
com\ihg\crm\automation\selenium\tests\servicecenter\programinfo\employee\CloseAccountStatusWithDuplicateTest.class
com\ihg\crm\automation\selenium\tests\servicecenter\offer\RegisterInSecondaryOfferTest.class
com\ihg\crm\automation\selenium\tests\servicecenter\signoff\SignOffTest.class
com\ihg\crm\automation\selenium\tests\servicecenter\programinfo\TryToDowngradeSpireRamTierLevelTest.class
com\ihg\crm\automation\selenium\tests\servicecenter\account\VerifyFlagOnAccountInfoFactory.class
com\ihg\crm\automation\selenium\tests\servicecenter\unit\TransferQualifyingNightsTest.class
com\ihg\crm\automation\selenium\tests\servicecenter\enrollment\dr\ChineseMemberByComplimentaryTest.class
com\ihg\crm\automation\selenium\tests\servicecenter\account\VerifyFlagOnAccountInfoFactoryTest.class
com\ihg\crm\automation\selenium\tests\servicecenter\levelbenefits\RedeemLevelBenefitTest.class
com\ihg\crm\automation\selenium\tests\servicecenter\programinfo\karma\KarTierLevelWithoutReasonTest.class
com\ihg\crm\automation\selenium\tests\servicecenter\enrollment\natives\CheckAddAllianceWithMemberFromMacaoTest.class
com\ihg\crm\automation\selenium\tests\servicecenter\rewardnight\RewardNightOperationsTest.class
com\ihg\crm\automation\selenium\tests\servicecenter\levelbenefits\RedeemPointsBenefitTest.class
com\ihg\crm\automation\selenium\tests\servicecenter\unit\UnitsCommon.class
com\ihg\crm\automation\selenium\tests\servicecenter\copperfield\PointEarningAndRedemptionForClubTest.class
com\ihg\crm\automation\selenium\tests\servicecenter\smoke\TrainingSmokeTest.class
com\ihg\crm\automation\selenium\tests\servicecenter\offer\ExternalCampaignTest.class
com\ihg\crm\automation\selenium\tests\servicecenter\uniqueemail\DuplicateEmailOnPersonalInfoPageTest.class
com\ihg\crm\automation\selenium\tests\servicecenter\copperfield\BalanceExpirationDateTest.class
com\ihg\crm\automation\selenium\tests\servicecenter\offer\TryToRegisterNonTargetedMemberToOfferTest.class
com\ihg\crm\automation\selenium\tests\servicecenter\copperfield\PointRemovalEventTest.class
com\ihg\crm\automation\selenium\tests\servicecenter\catalog\OrderWithUpdatingDataTest.class
com\ihg\crm\automation\selenium\tests\servicecenter\programinfo\ambassador\RenewByCreditCardTest.class
com\ihg\crm\automation\selenium\tests\servicecenter\staticdata\FieldsConfigurationOnEnrollPageTest.class
com\ihg\crm\automation\selenium\tests\servicecenter\enrollment\AutoPopulateCityStateTest.class
com\ihg\crm\automation\selenium\tests\servicecenter\catalog\AllianceCustomerTest.class
com\ihg\crm\automation\selenium\tests\servicecenter\login\InvalidLoginTest.class
com\ihg\crm\automation\selenium\tests\servicecenter\tierlevelexpiration\TierLevelBenefitExpirationDateTest.class
com\ihg\crm\automation\selenium\tests\servicecenter\programinfo\ambassador\ReactivateByCashTest.class
com\ihg\crm\automation\selenium\tests\servicecenter\catalog\WithMemberInContextTest.class
com\ihg\crm\automation\selenium\tests\servicecenter\deposit\DepositForClosedFrozenMemberTest.class
com\ihg\crm\automation\selenium\tests\servicecenter\guest\UpdateGuestContactsTest.class
com\ihg\crm\automation\selenium\tests\servicecenter\enrollment\karma\KarEnrollmentWithFlagsTest.class
com\ihg\crm\automation\selenium\tests\servicecenter\programinfo\UpdateRCMembershipFlagsTest.class
com\ihg\crm\automation\selenium\tests\servicecenter\preferences\AddBRTravelProfileOnMaxTravelProfilesTest.class
com\ihg\crm\automation\selenium\tests\servicecenter\thresholder\AchieveMaintainGoldByPointsTest.class
com\ihg\crm\automation\selenium\tests\servicecenter\deposit\DepositEligibilityByGuestRegionTest.class
com\ihg\crm\automation\selenium\tests\servicecenter\unit\TransferBalanceTest.class
com\ihg\crm\automation\selenium\tests\servicecenter\commpref\CustomerServicePhoneDayPartAuditTest.class
com\ihg\crm\automation\selenium\tests\servicecenter\enrollment\CancelIhgEnrollmentTest.class
com\ihg\crm\automation\selenium\tests\servicecenter\offer\ExternalCampaignWithPointsEarnedTest.class
com\ihg\crm\automation\selenium\tests\servicecenter\catalog\CatalogCommon.class
com\ihg\crm\automation\selenium\tests\servicecenter\offer\ForceRegisterToTargetOfferWithoutMemberInContextTest.class
com\ihg\crm\automation\selenium\tests\servicecenter\programinfo\ambassador\RenewByComplimentaryTest.class
com\ihg\crm\automation\selenium\tests\servicecenter\stay\AdjustStayTest.class
com\ihg\crm\automation\selenium\tests\servicecenter\stay\StayTierLevelPointsTest.class
com\ihg\crm\automation\selenium\tests\servicecenter\account\SendPinWithEmailAndEditPinTest.class
com\ihg\crm\automation\selenium\tests\servicecenter\copperfield\ExtendPointExpirationDateTest.class
com\ihg\crm\automation\selenium\tests\servicecenter\refdata\VerifyCountryAndCurrencyTest.class
com\ihg\crm\automation\selenium\tests\servicecenter\business\CreateEventTest.class
com\ihg\crm\automation\selenium\tests\servicecenter\catalog\WithClosedMemberInContextTest.class
com\ihg\crm\automation\selenium\tests\servicecenter\catalog\MemberNonMemberEligibilityCheckTest.class
com\ihg\crm\automation\selenium\tests\servicecenter\programinfo\dr\ProgramInformationDRTest.class
com\ihg\crm\automation\selenium\tests\servicecenter\unit\GoodwillMileUnitsTest.class
com\ihg\crm\automation\selenium\tests\servicecenter\catalog\OrderWithNewAddressAndEmailTest.class
com\ihg\crm\automation\selenium\tests\servicecenter\catalog\TierLevelEligibilityCheckTest.class
com\ihg\crm\automation\selenium\tests\servicecenter\programinfo\EditMemberSinceFieldTest.class
com\ihg\crm\automation\selenium\tests\servicecenter\enrollment\CompleteEnrollmentTest.class
com\ihg\crm\automation\selenium\tests\servicecenter\programinfo\CloseMembershipValidateStatusOfDependingProgramsTest.class
com\ihg\crm\automation\selenium\tests\servicecenter\socialid\VerificationSocialIdTest.class
com\ihg\crm\automation\selenium\tests\servicecenter\offer\TargetingOfferCommon.class
com\ihg\crm\automation\selenium\tests\servicecenter\programinfo\dr\ReactivateByCashTest.class
com\ihg\crm\automation\selenium\tests\servicecenter\enrollment\br\DeclineTsCsClosePendingBRMemberTest.class
com\ihg\crm\automation\selenium\tests\servicecenter\order\VoucherOrderPlatinumTest.class
com\ihg\crm\automation\selenium\tests\servicecenter\programinfo\dr\RenewByPointsTest.class
com\ihg\crm\automation\selenium\tests\servicecenter\programinfo\karma\UpdateRCTierLevelForKarmaMemberTest.class
com\ihg\crm\automation\selenium\tests\servicecenter\preferences\VerificationTravelProfileUniquenessAddTest.class
com\ihg\crm\automation\selenium\tests\servicecenter\programinfo\ambassador\ReactivateByCheckTest.class
com\ihg\crm\automation\selenium\tests\servicecenter\programinfo\ambassador\RenewByCashTest.class
com\ihg\crm\automation\selenium\tests\servicecenter\deposit\TransactionTypeCoPartnerTest.class
com\ihg\crm\automation\selenium\tests\servicecenter\programinfo\karma\CloseKarmaProgramTest.class
com\ihg\crm\automation\selenium\tests\servicecenter\enrollment\EnrollmentToIHGTest.class
com\ihg\crm\automation\selenium\tests\servicecenter\thresholder\AchieveLevelsByNightsTest.class
com\ihg\crm\automation\selenium\tests\servicecenter\levelbenefits\LevelBenefitsCommon.class
com\ihg\crm\automation\selenium\tests\servicecenter\programinfo\DowngradeSpireRewardClubTierLevelTest.class
com\ihg\crm\automation\selenium\tests\servicecenter\programinfo\ambassador\ExtendExpirationDateTest.class
com\ihg\crm\automation\selenium\tests\servicecenter\deposit\DepositNoneQualifyingPointsTest.class
com\ihg\crm\automation\selenium\tests\servicecenter\deposit\HotelPointsDepositTest.class
com\ihg\crm\automation\selenium\tests\servicecenter\enrollment\IsEmailPhonePreferredTest.class
com\ihg\crm\automation\selenium\tests\servicecenter\programinfo\karma\UpdateKarmaMembershipFlagsTest.class
com\ihg\crm\automation\selenium\tests\servicecenter\catalog\AddToCartTest.class
com\ihg\crm\automation\selenium\tests\servicecenter\copperfield\PointEarningAndRedemptionForGoldTest.class
com\ihg\crm\automation\selenium\tests\servicecenter\offer\RegisterToTargetOfferWithMemberInContextTest.class
com\ihg\crm\automation\selenium\tests\servicecenter\tierlevelexpiration\KarmaTierLevelExpirationForSpireNextYearTest.class
com\ihg\crm\automation\selenium\tests\servicecenter\account\LockUnlockProfileTest.class
com\ihg\crm\automation\selenium\tests\servicecenter\programinfo\karma\KarmaTierLevelWithReferringMemberTest.class
com\ihg\crm\automation\selenium\tests\servicecenter\commpref\CustomerServicePhoneTest.class
com\ihg\crm\automation\selenium\tests\servicecenter\enrollment\SimpleEnrollmentTest.class
com\ihg\crm\automation\selenium\tests\servicecenter\programinfo\ambassador\ManualDowngradeTierLevelTest.class
com\ihg\crm\automation\selenium\tests\servicecenter\offer\ExternalCampaignWithPointsWithoutNightsEarnedTest.class
com\ihg\crm\automation\selenium\tests\servicecenter\thresholder\AchieveMaintainSpireByPointsTest.class
com\ihg\crm\automation\selenium\tests\servicecenter\copperfield\GivePointAnotherMemberForGoldTest.class
com\ihg\crm\automation\selenium\tests\servicecenter\LoginLogout.class
com\ihg\crm\automation\selenium\tests\servicecenter\catalog\WithoutMemberInTheContextTest.class
com\ihg\crm\automation\selenium\tests\servicecenter\stay\disqualified\PartiallyOverlappingStayTest.class
com\ihg\crm\automation\selenium\tests\servicecenter\business\VerificationBusinessTabTest.class
com\ihg\crm\automation\selenium\tests\servicecenter\copperfield\ExpirationNotAvailableForNegativeBalanceTest.class
com\ihg\crm\automation\selenium\tests\servicecenter\offer\ForceRegisterInExpiredOfferTest.class
com\ihg\crm\automation\selenium\tests\servicecenter\programinfo\ambassador\EnrollToAMBWithCommPrefUpdateTest.class
com\ihg\crm\automation\selenium\tests\servicecenter\login\MainMenuAvailabilityTest.class
com\ihg\crm\automation\selenium\tests\servicecenter\order\CreateVoucherOrderPaperFulfillmentTest.class
com\ihg\crm\automation\selenium\tests\servicecenter\programinfo\ambassador\RenewByPointsTest.class
com\ihg\crm\automation\selenium\tests\servicecenter\commpref\RCMemberWithEmailAndPhoneTest.class
com\ihg\crm\automation\selenium\tests\servicecenter\enrollment\CustomerInformationTest.class
com\ihg\crm\automation\selenium\tests\servicecenter\preferences\CorporateAccountTest.class
com\ihg\crm\automation\selenium\tests\servicecenter\offer\NoTrackingOfferTest.class
com\ihg\crm\automation\selenium\tests\servicecenter\uniqueemail\DuplicateEmailOnAccountInfoPageTest.class
com\ihg\crm\automation\selenium\tests\servicecenter\enrollment\dr\AustraliaMemberByCreditCardTest.class
com\ihg\crm\automation\selenium\tests\servicecenter\order\VoucherOrderCommon.class
com\ihg\crm\automation\selenium\tests\servicecenter\unit\UnitOperationForClosedFrozenMemberTest.class
com\ihg\crm\automation\selenium\tests\servicecenter\programinfo\CloseAllProgramsTest.class
com\ihg\crm\automation\selenium\tests\servicecenter\enrollment\SalutationPopulatesGenderTest.class
com\ihg\crm\automation\selenium\tests\servicecenter\thresholder\AchieveMaintainGoldByNightsTest.class
com\ihg\crm\automation\selenium\tests\servicecenter\enrollment\br\AcceptTsCsTest.class
com\ihg\crm\automation\selenium\tests\servicecenter\copperfield\TierLevelUpgradeDowngradeTest.class
com\ihg\crm\automation\selenium\tests\servicecenter\enrollment\natives\CheckOrderSummaryWithMemberFromHongKongTest.class
com\ihg\crm\automation\selenium\tests\servicecenter\offer\RegisterToTargetOfferWithoutMemberInContextTest.class
com\ihg\crm\automation\selenium\tests\servicecenter\enrollment\EnrollmentToEMPTest.class
com\ihg\crm\automation\selenium\tests\servicecenter\programinfo\ambassador\ReactivateByCreditCardTest.class
com\ihg\crm\automation\selenium\tests\servicecenter\programinfo\PurchaseGoldTierLevelTest.class
com\ihg\crm\automation\selenium\tests\servicecenter\unit\PurchaseUnitsTest.class
com\ihg\crm\automation\selenium\tests\servicecenter\business\BusinessEventOnAllEventPageTest.class
com\ihg\crm\automation\selenium\tests\servicecenter\programinfo\ambassador\UpdateFlagsTest.class
com\ihg\crm\automation\selenium\tests\servicecenter\tierlevelexpiration\GoldAndPlatinumOnDepositTest.class
com\ihg\crm\automation\selenium\tests\servicecenter\stay\disqualified\StayByRateTest.class
com\ihg\crm\automation\selenium\tests\servicecenter\stay\disqualified\StayNotEnoughRoomRevenueTest.class
com\ihg\crm\automation\selenium\tests\servicecenter\tierlevelexpiration\ManualUpgradeAndDowngradeTest.class
com\ihg\crm\automation\selenium\tests\servicecenter\unit\PurchaseGiftTest.class
com\ihg\crm\automation\selenium\tests\servicecenter\programinfo\AddHertzAlternateLoyaltyIDTest.class
com\ihg\crm\automation\selenium\tests\servicecenter\programinfo\PartnerBenefitDetailsTest.class
com\ihg\crm\automation\selenium\tests\servicecenter\programinfo\HertzAlternateLoyaltyIDForClosedMemberTest.class
com\ihg\crm\automation\selenium\tests\servicecenter\catalog\NewOrderTest.class
com\ihg\crm\automation\selenium\tests\servicecenter\commpref\CustomerServiceEmailTest.class
com\ihg\crm\automation\selenium\tests\servicecenter\deposit\DepositEligibilityByHotelRegion.class
com\ihg\crm\automation\selenium\tests\servicecenter\enrollment\br\EnrollmentToBRTest.class
com\ihg\crm\automation\selenium\tests\servicecenter\unit\GoodwillUnitsNegativeAmountTest.class
com\ihg\crm\automation\selenium\tests\servicecenter\commpref\MarkEmailAsInvalidTest.class
com\ihg\crm\automation\selenium\tests\servicecenter\copperfield\TierLevelMaintainEventsTest.class
com\ihg\crm\automation\selenium\tests\servicecenter\search\GuestSearchByCombinationsTest.class
com\ihg\crm\automation\selenium\tests\servicecenter\tierlevelexpiration\AMBProgramExtensionTest.class
com\ihg\crm\automation\selenium\tests\servicecenter\programinfo\dr\DRCommon.class
