C:\GIT\sGIT\lyty-functional-tests\functional-tests\selenium\selenium-tests\selenium-tests-servicecenter\src\test\java\com\ihg\crm\automation\selenium\tests\servicecenter\tierlevelexpiration\AMBProgramExtensionTest.java
C:\GIT\sGIT\lyty-functional-tests\functional-tests\selenium\selenium-tests\selenium-tests-servicecenter\src\test\java\com\ihg\crm\automation\selenium\tests\servicecenter\offer\NoTrackingOfferTest.java
C:\GIT\sGIT\lyty-functional-tests\functional-tests\selenium\selenium-tests\selenium-tests-servicecenter\src\test\java\com\ihg\crm\automation\selenium\tests\servicecenter\commpref\RCMemberWithEmailAndPhoneTest.java
C:\GIT\sGIT\lyty-functional-tests\functional-tests\selenium\selenium-tests\selenium-tests-servicecenter\src\test\java\com\ihg\crm\automation\selenium\tests\servicecenter\enrollment\ambassador\EnrollmentExistingMemberByPointsTest.java
C:\GIT\sGIT\lyty-functional-tests\functional-tests\selenium\selenium-tests\selenium-tests-servicecenter\src\test\java\com\ihg\crm\automation\selenium\tests\servicecenter\enrollment\karma\KarEnrollmentWithFlagsTest.java
C:\GIT\sGIT\lyty-functional-tests\functional-tests\selenium\selenium-tests\selenium-tests-servicecenter\src\test\java\com\ihg\crm\automation\selenium\tests\servicecenter\tierlevelexpiration\ProgramUpgradeToRAMTest.java
C:\GIT\sGIT\lyty-functional-tests\functional-tests\selenium\selenium-tests\selenium-tests-servicecenter\src\test\java\com\ihg\crm\automation\selenium\tests\servicecenter\unit\TryToTransferNegativeBalanceTest.java
C:\GIT\sGIT\lyty-functional-tests\functional-tests\selenium\selenium-tests\selenium-tests-servicecenter\src\test\java\com\ihg\crm\automation\selenium\tests\servicecenter\order\VoucherOrderCommon.java
C:\GIT\sGIT\lyty-functional-tests\functional-tests\selenium\selenium-tests\selenium-tests-servicecenter\src\test\java\com\ihg\crm\automation\selenium\tests\servicecenter\copperfield\PointEarningAndRedemptionForClubTest.java
C:\GIT\sGIT\lyty-functional-tests\functional-tests\selenium\selenium-tests\selenium-tests-servicecenter\src\test\java\com\ihg\crm\automation\selenium\tests\servicecenter\enrollment\br\ReactivateDeclinedMemberTest.java
C:\GIT\sGIT\lyty-functional-tests\functional-tests\selenium\selenium-tests\selenium-tests-servicecenter\src\test\java\com\ihg\crm\automation\selenium\tests\servicecenter\copperfield\BalanceExpirationDateTest.java
C:\GIT\sGIT\lyty-functional-tests\functional-tests\selenium\selenium-tests\selenium-tests-servicecenter\src\test\java\com\ihg\crm\automation\selenium\tests\servicecenter\enrollment\AutoPopulateCityStateTest.java
C:\GIT\sGIT\lyty-functional-tests\functional-tests\selenium\selenium-tests\selenium-tests-servicecenter\src\test\java\com\ihg\crm\automation\selenium\tests\servicecenter\catalog\WithMemberInContextTest.java
C:\GIT\sGIT\lyty-functional-tests\functional-tests\selenium\selenium-tests\selenium-tests-servicecenter\src\test\java\com\ihg\crm\automation\selenium\tests\servicecenter\enrollment\EnrollWithOfferCodeToPlatinumTest.java
C:\GIT\sGIT\lyty-functional-tests\functional-tests\selenium\selenium-tests\selenium-tests-servicecenter\src\test\java\com\ihg\crm\automation\selenium\tests\servicecenter\enrollment\dr\AustraliaMemberByCreditCardTest.java
C:\GIT\sGIT\lyty-functional-tests\functional-tests\selenium\selenium-tests\selenium-tests-servicecenter\src\test\java\com\ihg\crm\automation\selenium\tests\servicecenter\enrollment\dr\EnrollToDrCommon.java
C:\GIT\sGIT\lyty-functional-tests\functional-tests\selenium\selenium-tests\selenium-tests-servicecenter\src\test\java\com\ihg\crm\automation\selenium\tests\servicecenter\stay\disqualified\StayByRateTest.java
C:\GIT\sGIT\lyty-functional-tests\functional-tests\selenium\selenium-tests\selenium-tests-servicecenter\src\test\java\com\ihg\crm\automation\selenium\tests\servicecenter\unit\GoodwillUnitsNegativeAmountTest.java
C:\GIT\sGIT\lyty-functional-tests\functional-tests\selenium\selenium-tests\selenium-tests-servicecenter\src\test\java\com\ihg\crm\automation\selenium\tests\servicecenter\hotel\HotelCertificateOperationsTest.java
C:\GIT\sGIT\lyty-functional-tests\functional-tests\selenium\selenium-tests\selenium-tests-servicecenter\src\test\java\com\ihg\crm\automation\selenium\tests\servicecenter\tierlevelexpiration\KarmaTierLevelExpirationForSpireLifetimeTest.java
C:\GIT\sGIT\lyty-functional-tests\functional-tests\selenium\selenium-tests\selenium-tests-servicecenter\src\test\java\com\ihg\crm\automation\selenium\tests\servicecenter\unit\TransferQualifyingNightsTest.java
C:\GIT\sGIT\lyty-functional-tests\functional-tests\selenium\selenium-tests\selenium-tests-servicecenter\src\test\java\com\ihg\crm\automation\selenium\tests\servicecenter\programinfo\dr\ReactivateByCashTest.java
C:\GIT\sGIT\lyty-functional-tests\functional-tests\selenium\selenium-tests\selenium-tests-servicecenter\src\test\java\com\ihg\crm\automation\selenium\tests\servicecenter\programinfo\EmployeeRateEligibilityTest.java
C:\GIT\sGIT\lyty-functional-tests\functional-tests\selenium\selenium-tests\selenium-tests-servicecenter\src\test\java\com\ihg\crm\automation\selenium\tests\servicecenter\enrollment\NamePopulateNegativeTest.java
C:\GIT\sGIT\lyty-functional-tests\functional-tests\selenium\selenium-tests\selenium-tests-servicecenter\src\test\java\com\ihg\crm\automation\selenium\tests\servicecenter\levelbenefits\RedeemLevelBenefitTest.java
C:\GIT\sGIT\lyty-functional-tests\functional-tests\selenium\selenium-tests\selenium-tests-servicecenter\src\test\java\com\ihg\crm\automation\selenium\tests\servicecenter\copperfield\GivePointAnotherMemberForClubTest.java
C:\GIT\sGIT\lyty-functional-tests\functional-tests\selenium\selenium-tests\selenium-tests-servicecenter\src\test\java\com\ihg\crm\automation\selenium\tests\servicecenter\deposit\HotelPointsDepositTest.java
C:\GIT\sGIT\lyty-functional-tests\functional-tests\selenium\selenium-tests\selenium-tests-servicecenter\src\test\java\com\ihg\crm\automation\selenium\tests\servicecenter\programinfo\CoBrandedCreditCardsTest.java
C:\GIT\sGIT\lyty-functional-tests\functional-tests\selenium\selenium-tests\selenium-tests-servicecenter\src\test\java\com\ihg\crm\automation\selenium\tests\servicecenter\account\RemovedClosedStatusFromOpenTest.java
C:\GIT\sGIT\lyty-functional-tests\functional-tests\selenium\selenium-tests\selenium-tests-servicecenter\src\test\java\com\ihg\crm\automation\selenium\tests\servicecenter\signoff\SignOffTest.java
C:\GIT\sGIT\lyty-functional-tests\functional-tests\selenium\selenium-tests\selenium-tests-servicecenter\src\test\java\com\ihg\crm\automation\selenium\tests\servicecenter\programinfo\PurchaseGoldTierLevelTest.java
C:\GIT\sGIT\lyty-functional-tests\functional-tests\selenium\selenium-tests\selenium-tests-servicecenter\src\test\java\com\ihg\crm\automation\selenium\tests\servicecenter\catalog\AllianceCustomerTest.java
C:\GIT\sGIT\lyty-functional-tests\functional-tests\selenium\selenium-tests\selenium-tests-servicecenter\src\test\java\com\ihg\crm\automation\selenium\tests\servicecenter\enrollment\HtlEnrollmentTest.java
C:\GIT\sGIT\lyty-functional-tests\functional-tests\selenium\selenium-tests\selenium-tests-servicecenter\src\test\java\com\ihg\crm\automation\selenium\tests\servicecenter\programinfo\dr\ReactivateByCreditCardTest.java
C:\GIT\sGIT\lyty-functional-tests\functional-tests\selenium\selenium-tests\selenium-tests-servicecenter\src\test\java\com\ihg\crm\automation\selenium\tests\servicecenter\enrollment\br\DeclineTsCsClosePendingBRMemberTest.java
C:\GIT\sGIT\lyty-functional-tests\functional-tests\selenium\selenium-tests\selenium-tests-servicecenter\src\test\java\com\ihg\crm\automation\selenium\tests\servicecenter\unit\UnitsCommon.java
C:\GIT\sGIT\lyty-functional-tests\functional-tests\selenium\selenium-tests\selenium-tests-servicecenter\src\test\java\com\ihg\crm\automation\selenium\tests\servicecenter\enrollment\NegativeNamesDataProvider.java
C:\GIT\sGIT\lyty-functional-tests\functional-tests\selenium\selenium-tests\selenium-tests-servicecenter\src\test\java\com\ihg\crm\automation\selenium\tests\servicecenter\programinfo\DowngradeSpireRewardClubTierLevelTest.java
C:\GIT\sGIT\lyty-functional-tests\functional-tests\selenium\selenium-tests\selenium-tests-servicecenter\src\test\java\com\ihg\crm\automation\selenium\tests\servicecenter\enrollment\EnrollmentToEMPTest.java
C:\GIT\sGIT\lyty-functional-tests\functional-tests\selenium\selenium-tests\selenium-tests-servicecenter\src\test\java\com\ihg\crm\automation\selenium\tests\servicecenter\catalog\OrderWithNewAddressAndEmailTest.java
C:\GIT\sGIT\lyty-functional-tests\functional-tests\selenium\selenium-tests\selenium-tests-servicecenter\src\test\java\com\ihg\crm\automation\selenium\tests\servicecenter\enrollment\br\AcceptTsCsTest.java
C:\GIT\sGIT\lyty-functional-tests\functional-tests\selenium\selenium-tests\selenium-tests-servicecenter\src\test\java\com\ihg\crm\automation\selenium\tests\servicecenter\tierlevelexpiration\TierLevelBenefitExpirationDateTest.java
C:\GIT\sGIT\lyty-functional-tests\functional-tests\selenium\selenium-tests\selenium-tests-servicecenter\src\test\java\com\ihg\crm\automation\selenium\tests\servicecenter\enrollment\br\EnrollmentToBRTest.java
C:\GIT\sGIT\lyty-functional-tests\functional-tests\selenium\selenium-tests\selenium-tests-servicecenter\src\test\java\com\ihg\crm\automation\selenium\tests\servicecenter\regiontransfer\RegionTransferTest.java
C:\GIT\sGIT\lyty-functional-tests\functional-tests\selenium\selenium-tests\selenium-tests-servicecenter\src\test\java\com\ihg\crm\automation\selenium\tests\servicecenter\copperfield\TierLevelMaintainEventsTest.java
C:\GIT\sGIT\lyty-functional-tests\functional-tests\selenium\selenium-tests\selenium-tests-servicecenter\src\test\java\com\ihg\crm\automation\selenium\tests\servicecenter\enrollment\karma\KarEnrollmentWithExistingRCMemberTest.java
C:\GIT\sGIT\lyty-functional-tests\functional-tests\selenium\selenium-tests\selenium-tests-servicecenter\src\test\java\com\ihg\crm\automation\selenium\tests\servicecenter\account\DisplayDerivedGuestStatusTest.java
C:\GIT\sGIT\lyty-functional-tests\functional-tests\selenium\selenium-tests\selenium-tests-servicecenter\src\test\java\com\ihg\crm\automation\selenium\tests\servicecenter\tierlevelexpiration\ExpDateMoreThanRuleAndDepositHasTest.java
C:\GIT\sGIT\lyty-functional-tests\functional-tests\selenium\selenium-tests\selenium-tests-servicecenter\src\test\java\com\ihg\crm\automation\selenium\tests\servicecenter\catalog\AddToCartTest.java
C:\GIT\sGIT\lyty-functional-tests\functional-tests\selenium\selenium-tests\selenium-tests-servicecenter\src\test\java\com\ihg\crm\automation\selenium\tests\servicecenter\programinfo\karma\CloseKarmaProgramTest.java
C:\GIT\sGIT\lyty-functional-tests\functional-tests\selenium\selenium-tests\selenium-tests-servicecenter\src\test\java\com\ihg\crm\automation\selenium\tests\servicecenter\preferences\CorporateAccountTest.java
C:\GIT\sGIT\lyty-functional-tests\functional-tests\selenium\selenium-tests\selenium-tests-servicecenter\src\test\java\com\ihg\crm\automation\selenium\tests\servicecenter\programinfo\employee\UpdateEMPFlagTest.java
C:\GIT\sGIT\lyty-functional-tests\functional-tests\selenium\selenium-tests\selenium-tests-servicecenter\src\test\java\com\ihg\crm\automation\selenium\tests\servicecenter\offer\ForceRegisterToTargetOfferWithMemberInContextTest.java
C:\GIT\sGIT\lyty-functional-tests\functional-tests\selenium\selenium-tests\selenium-tests-servicecenter\src\test\java\com\ihg\crm\automation\selenium\tests\servicecenter\tierlevelexpiration\KarmaTierLevelExpirationForSpireCurrentYearTest.java
C:\GIT\sGIT\lyty-functional-tests\functional-tests\selenium\selenium-tests\selenium-tests-servicecenter\src\test\java\com\ihg\crm\automation\selenium\tests\servicecenter\commpref\CustomerServicePhoneDayPartAuditTest.java
C:\GIT\sGIT\lyty-functional-tests\functional-tests\selenium\selenium-tests\selenium-tests-servicecenter\src\test\java\com\ihg\crm\automation\selenium\tests\servicecenter\tierlevelexpiration\ManualUpgradeAndDowngradeTest.java
C:\GIT\sGIT\lyty-functional-tests\functional-tests\selenium\selenium-tests\selenium-tests-servicecenter\src\test\java\com\ihg\crm\automation\selenium\tests\servicecenter\LoginLogout.java
C:\GIT\sGIT\lyty-functional-tests\functional-tests\selenium\selenium-tests\selenium-tests-servicecenter\src\test\java\com\ihg\crm\automation\selenium\tests\servicecenter\programinfo\dr\UpdateDRProgramFlagsTest.java
C:\GIT\sGIT\lyty-functional-tests\functional-tests\selenium\selenium-tests\selenium-tests-servicecenter\src\test\java\com\ihg\crm\automation\selenium\tests\servicecenter\catalog\NewOrderTest.java
C:\GIT\sGIT\lyty-functional-tests\functional-tests\selenium\selenium-tests\selenium-tests-servicecenter\src\test\java\com\ihg\crm\automation\selenium\tests\servicecenter\uniqueemail\DuplicateEmailOnEnrollmentPageTest.java
C:\GIT\sGIT\lyty-functional-tests\functional-tests\selenium\selenium-tests\selenium-tests-servicecenter\src\test\java\com\ihg\crm\automation\selenium\tests\servicecenter\programinfo\UpgradeRCTierLevelToPlatinumTest.java
C:\GIT\sGIT\lyty-functional-tests\functional-tests\selenium\selenium-tests\selenium-tests-servicecenter\src\test\java\com\ihg\crm\automation\selenium\tests\servicecenter\programinfo\RcAddAllianceTest.java
C:\GIT\sGIT\lyty-functional-tests\functional-tests\selenium\selenium-tests\selenium-tests-servicecenter\src\test\java\com\ihg\crm\automation\selenium\tests\servicecenter\smoke\TrainingSmokeTest.java
C:\GIT\sGIT\lyty-functional-tests\functional-tests\selenium\selenium-tests\selenium-tests-servicecenter\src\test\java\com\ihg\crm\automation\selenium\tests\servicecenter\enrollment\natives\CheckOrderSummaryWithMemberFromHongKongTest.java
C:\GIT\sGIT\lyty-functional-tests\functional-tests\selenium\selenium-tests\selenium-tests-servicecenter\src\test\java\com\ihg\crm\automation\selenium\tests\servicecenter\offer\ForceRegisterInExpiredOfferTest.java
C:\GIT\sGIT\lyty-functional-tests\functional-tests\selenium\selenium-tests\selenium-tests-servicecenter\src\test\java\com\ihg\crm\automation\selenium\tests\servicecenter\thresholder\AchieveMaintainGoldByPointsTest.java
C:\GIT\sGIT\lyty-functional-tests\functional-tests\selenium\selenium-tests\selenium-tests-servicecenter\src\test\java\com\ihg\crm\automation\selenium\tests\servicecenter\offer\ExternalCampaignWithPointsEarnedTest.java
C:\GIT\sGIT\lyty-functional-tests\functional-tests\selenium\selenium-tests\selenium-tests-servicecenter\src\test\java\com\ihg\crm\automation\selenium\tests\servicecenter\order\DepositVoucherTest.java
C:\GIT\sGIT\lyty-functional-tests\functional-tests\selenium\selenium-tests\selenium-tests-servicecenter\src\test\java\com\ihg\crm\automation\selenium\tests\servicecenter\programinfo\ambassador\AmbassadorCommon.java
C:\GIT\sGIT\lyty-functional-tests\functional-tests\selenium\selenium-tests\selenium-tests-servicecenter\src\test\java\com\ihg\crm\automation\selenium\tests\servicecenter\preferences\VerificationBRTravelProfileTest.java
C:\GIT\sGIT\lyty-functional-tests\functional-tests\selenium\selenium-tests\selenium-tests-servicecenter\src\test\java\com\ihg\crm\automation\selenium\tests\servicecenter\offer\ExternalCampaignWithPointsWithoutNightsEarnedTest.java
C:\GIT\sGIT\lyty-functional-tests\functional-tests\selenium\selenium-tests\selenium-tests-servicecenter\src\test\java\com\ihg\crm\automation\selenium\tests\servicecenter\programinfo\EmployeeRateEligibilityWithORMTest.java
C:\GIT\sGIT\lyty-functional-tests\functional-tests\selenium\selenium-tests\selenium-tests-servicecenter\src\test\java\com\ihg\crm\automation\selenium\tests\servicecenter\copperfield\ExtendPointExpirationDateTest.java
C:\GIT\sGIT\lyty-functional-tests\functional-tests\selenium\selenium-tests\selenium-tests-servicecenter\src\test\java\com\ihg\crm\automation\selenium\tests\servicecenter\preferences\DefaultCheckboxForTravelProfileOnCreateTest.java
C:\GIT\sGIT\lyty-functional-tests\functional-tests\selenium\selenium-tests\selenium-tests-servicecenter\src\test\java\com\ihg\crm\automation\selenium\tests\servicecenter\account\SendPinWithEmailAndEditPinTest.java
C:\GIT\sGIT\lyty-functional-tests\functional-tests\selenium\selenium-tests\selenium-tests-servicecenter\src\test\java\com\ihg\crm\automation\selenium\tests\servicecenter\offer\TryToRegisterNonTargetedMemberToOfferTest.java
C:\GIT\sGIT\lyty-functional-tests\functional-tests\selenium\selenium-tests\selenium-tests-servicecenter\src\test\java\com\ihg\crm\automation\selenium\tests\servicecenter\staticdata\FieldsConfigurationOnEnrollPageTest.java
C:\GIT\sGIT\lyty-functional-tests\functional-tests\selenium\selenium-tests\selenium-tests-servicecenter\src\test\java\com\ihg\crm\automation\selenium\tests\servicecenter\programinfo\dr\RenewByPointsTest.java
C:\GIT\sGIT\lyty-functional-tests\functional-tests\selenium\selenium-tests\selenium-tests-servicecenter\src\test\java\com\ihg\crm\automation\selenium\tests\servicecenter\copperfield\GivePointAnotherMemberBase.java
C:\GIT\sGIT\lyty-functional-tests\functional-tests\selenium\selenium-tests\selenium-tests-servicecenter\src\test\java\com\ihg\crm\automation\selenium\tests\servicecenter\hotel\HotelCertificateSearchTest.java
C:\GIT\sGIT\lyty-functional-tests\functional-tests\selenium\selenium-tests\selenium-tests-servicecenter\src\test\java\com\ihg\crm\automation\selenium\tests\servicecenter\programinfo\ambassador\RenewByCashTest.java
C:\GIT\sGIT\lyty-functional-tests\functional-tests\selenium\selenium-tests\selenium-tests-servicecenter\src\test\java\com\ihg\crm\automation\selenium\tests\servicecenter\meeting\CreateMeetingTest.java
C:\GIT\sGIT\lyty-functional-tests\functional-tests\selenium\selenium-tests\selenium-tests-servicecenter\src\test\java\com\ihg\crm\automation\selenium\tests\servicecenter\programinfo\karma\UpdateRCTierLevelForKarmaMemberTest.java
C:\GIT\sGIT\lyty-functional-tests\functional-tests\selenium\selenium-tests\selenium-tests-servicecenter\src\test\java\com\ihg\crm\automation\selenium\tests\servicecenter\programinfo\ambassador\UpdateFlagsTest.java
C:\GIT\sGIT\lyty-functional-tests\functional-tests\selenium\selenium-tests\selenium-tests-servicecenter\src\test\java\com\ihg\crm\automation\selenium\tests\servicecenter\offer\ExternalCampaignTest.java
C:\GIT\sGIT\lyty-functional-tests\functional-tests\selenium\selenium-tests\selenium-tests-servicecenter\src\test\java\com\ihg\crm\automation\selenium\tests\servicecenter\stay\disqualified\StayTotalRevenueExceedsMaximumAllowedTest.java
C:\GIT\sGIT\lyty-functional-tests\functional-tests\selenium\selenium-tests\selenium-tests-servicecenter\src\test\java\com\ihg\crm\automation\selenium\tests\servicecenter\thresholder\AchieveLevelsByNightsTest.java
C:\GIT\sGIT\lyty-functional-tests\functional-tests\selenium\selenium-tests\selenium-tests-servicecenter\src\test\java\com\ihg\crm\automation\selenium\tests\servicecenter\account\AccountInformationTest.java
C:\GIT\sGIT\lyty-functional-tests\functional-tests\selenium\selenium-tests\selenium-tests-servicecenter\src\test\java\com\ihg\crm\automation\selenium\tests\servicecenter\meeting\MeetingBonusTest.java
C:\GIT\sGIT\lyty-functional-tests\functional-tests\selenium\selenium-tests\selenium-tests-servicecenter\src\test\java\com\ihg\crm\automation\selenium\tests\servicecenter\programinfo\ambassador\RenewByCheckTest.java
C:\GIT\sGIT\lyty-functional-tests\functional-tests\selenium\selenium-tests\selenium-tests-servicecenter\src\test\java\com\ihg\crm\automation\selenium\tests\servicecenter\catalog\MemberNonMemberEligibilityCheckTest.java
C:\GIT\sGIT\lyty-functional-tests\functional-tests\selenium\selenium-tests\selenium-tests-servicecenter\src\test\java\com\ihg\crm\automation\selenium\tests\servicecenter\stay\disqualified\PartiallyOverlappingStayTest.java
C:\GIT\sGIT\lyty-functional-tests\functional-tests\selenium\selenium-tests\selenium-tests-servicecenter\src\test\java\com\ihg\crm\automation\selenium\tests\servicecenter\login\MainMenuAvailabilityTest.java
C:\GIT\sGIT\lyty-functional-tests\functional-tests\selenium\selenium-tests\selenium-tests-servicecenter\src\test\java\com\ihg\crm\automation\selenium\tests\servicecenter\programinfo\ambassador\ExtendExpirationDateTest.java
C:\GIT\sGIT\lyty-functional-tests\functional-tests\selenium\selenium-tests\selenium-tests-servicecenter\src\test\java\com\ihg\crm\automation\selenium\tests\servicecenter\programinfo\ClosedMemberWithReasonsTest.java
C:\GIT\sGIT\lyty-functional-tests\functional-tests\selenium\selenium-tests\selenium-tests-servicecenter\src\test\java\com\ihg\crm\automation\selenium\tests\servicecenter\enrollment\UpdateNameNegativeTest.java
C:\GIT\sGIT\lyty-functional-tests\functional-tests\selenium\selenium-tests\selenium-tests-servicecenter\src\test\java\com\ihg\crm\automation\selenium\tests\servicecenter\stay\disqualified\StayNotEnoughQualifyingRevenueTest.java
C:\GIT\sGIT\lyty-functional-tests\functional-tests\selenium\selenium-tests\selenium-tests-servicecenter\src\test\java\com\ihg\crm\automation\selenium\tests\servicecenter\enrollment\dr\ChineseMemberByCashTest.java
C:\GIT\sGIT\lyty-functional-tests\functional-tests\selenium\selenium-tests\selenium-tests-servicecenter\src\test\java\com\ihg\crm\automation\selenium\tests\servicecenter\copperfield\PointEarningAndRedemptionBase.java
C:\GIT\sGIT\lyty-functional-tests\functional-tests\selenium\selenium-tests\selenium-tests-servicecenter\src\test\java\com\ihg\crm\automation\selenium\tests\servicecenter\hotel\FreeNightReimbursementOperationsTest.java
C:\GIT\sGIT\lyty-functional-tests\functional-tests\selenium\selenium-tests\selenium-tests-servicecenter\src\test\java\com\ihg\crm\automation\selenium\tests\servicecenter\offer\ExternalCampaignWithNightsEarnedTest.java
C:\GIT\sGIT\lyty-functional-tests\functional-tests\selenium\selenium-tests\selenium-tests-servicecenter\src\test\java\com\ihg\crm\automation\selenium\tests\servicecenter\offer\TargetingOfferCommon.java
C:\GIT\sGIT\lyty-functional-tests\functional-tests\selenium\selenium-tests\selenium-tests-servicecenter\src\test\java\com\ihg\crm\automation\selenium\tests\servicecenter\enrollment\CancelIhgEnrollmentTest.java
C:\GIT\sGIT\lyty-functional-tests\functional-tests\selenium\selenium-tests\selenium-tests-servicecenter\src\test\java\com\ihg\crm\automation\selenium\tests\servicecenter\copperfield\ExpirationNotAvailableForNegativeBalanceTest.java
C:\GIT\sGIT\lyty-functional-tests\functional-tests\selenium\selenium-tests\selenium-tests-servicecenter\src\test\java\com\ihg\crm\automation\selenium\tests\servicecenter\stay\CreateMissingStayTest.java
C:\GIT\sGIT\lyty-functional-tests\functional-tests\selenium\selenium-tests\selenium-tests-servicecenter\src\test\java\com\ihg\crm\automation\selenium\tests\servicecenter\offer\ForceRegisterToTargetOfferWithoutMemberInContextTest.java
C:\GIT\sGIT\lyty-functional-tests\functional-tests\selenium\selenium-tests\selenium-tests-servicecenter\src\test\java\com\ihg\crm\automation\selenium\tests\servicecenter\offer\RegisterToTargetOfferWithMemberInContextTest.java
C:\GIT\sGIT\lyty-functional-tests\functional-tests\selenium\selenium-tests\selenium-tests-servicecenter\src\test\java\com\ihg\crm\automation\selenium\tests\servicecenter\programinfo\ambassador\ReactivateByCheckTest.java
C:\GIT\sGIT\lyty-functional-tests\functional-tests\selenium\selenium-tests\selenium-tests-servicecenter\src\test\java\com\ihg\crm\automation\selenium\tests\servicecenter\offer\RegisterToTargetOfferWithoutMemberInContextTest.java
C:\GIT\sGIT\lyty-functional-tests\functional-tests\selenium\selenium-tests\selenium-tests-servicecenter\src\test\java\com\ihg\crm\automation\selenium\tests\servicecenter\programinfo\DowngradeRCTierLevelFromGoldTest.java
C:\GIT\sGIT\lyty-functional-tests\functional-tests\selenium\selenium-tests\selenium-tests-servicecenter\src\test\java\com\ihg\crm\automation\selenium\tests\servicecenter\programinfo\karma\KarmaTierLevelTest.java
C:\GIT\sGIT\lyty-functional-tests\functional-tests\selenium\selenium-tests\selenium-tests-servicecenter\src\test\java\com\ihg\crm\automation\selenium\tests\servicecenter\account\KarmaCommentsTest.java
C:\GIT\sGIT\lyty-functional-tests\functional-tests\selenium\selenium-tests\selenium-tests-servicecenter\src\test\java\com\ihg\crm\automation\selenium\tests\servicecenter\order\CreateVoucherOrderEmailFulfillmentTest.java
C:\GIT\sGIT\lyty-functional-tests\functional-tests\selenium\selenium-tests\selenium-tests-servicecenter\src\test\java\com\ihg\crm\automation\selenium\tests\servicecenter\tierlevelexpiration\GoldAndPlatinumOnDepositTest.java
C:\GIT\sGIT\lyty-functional-tests\functional-tests\selenium\selenium-tests\selenium-tests-servicecenter\src\test\java\com\ihg\crm\automation\selenium\tests\servicecenter\order\VoucherOrderNegativeTest.java
C:\GIT\sGIT\lyty-functional-tests\functional-tests\selenium\selenium-tests\selenium-tests-servicecenter\src\test\java\com\ihg\crm\automation\selenium\tests\servicecenter\enrollment\EnrollmentWithPrePrintedMembershipIdTest.java
C:\GIT\sGIT\lyty-functional-tests\functional-tests\selenium\selenium-tests\selenium-tests-servicecenter\src\test\java\com\ihg\crm\automation\selenium\tests\servicecenter\enrollment\natives\CheckAddAllianceWithMemberFromMacaoTest.java
C:\GIT\sGIT\lyty-functional-tests\functional-tests\selenium\selenium-tests\selenium-tests-servicecenter\src\test\java\com\ihg\crm\automation\selenium\tests\servicecenter\deposit\DepositEligibilityByCountryTest.java
C:\GIT\sGIT\lyty-functional-tests\functional-tests\selenium\selenium-tests\selenium-tests-servicecenter\src\test\java\com\ihg\crm\automation\selenium\tests\servicecenter\copperfield\GivePointAnotherMemberForGoldTest.java
C:\GIT\sGIT\lyty-functional-tests\functional-tests\selenium\selenium-tests\selenium-tests-servicecenter\src\test\java\com\ihg\crm\automation\selenium\tests\servicecenter\login\InvalidLoginTest.java
C:\GIT\sGIT\lyty-functional-tests\functional-tests\selenium\selenium-tests\selenium-tests-servicecenter\src\test\java\com\ihg\crm\automation\selenium\tests\servicecenter\preferences\VerificationTravelProfileUniquenessAddTest.java
C:\GIT\sGIT\lyty-functional-tests\functional-tests\selenium\selenium-tests\selenium-tests-servicecenter\src\test\java\com\ihg\crm\automation\selenium\tests\servicecenter\stay\disqualified\OverlappingStayTest.java
C:\GIT\sGIT\lyty-functional-tests\functional-tests\selenium\selenium-tests\selenium-tests-servicecenter\src\test\java\com\ihg\crm\automation\selenium\tests\servicecenter\enrollment\dr\EnrollmentByCreditCardTest.java
C:\GIT\sGIT\lyty-functional-tests\functional-tests\selenium\selenium-tests\selenium-tests-servicecenter\src\test\java\com\ihg\crm\automation\selenium\tests\servicecenter\stay\CreateMissingStayRewardNightTest.java
C:\GIT\sGIT\lyty-functional-tests\functional-tests\selenium\selenium-tests\selenium-tests-servicecenter\src\test\java\com\ihg\crm\automation\selenium\tests\servicecenter\enrollment\karma\KAREnrollmentTest.java
C:\GIT\sGIT\lyty-functional-tests\functional-tests\selenium\selenium-tests\selenium-tests-servicecenter\src\test\java\com\ihg\crm\automation\selenium\tests\servicecenter\enrollment\ambassador\EnrollmentByCheckTest.java
C:\GIT\sGIT\lyty-functional-tests\functional-tests\selenium\selenium-tests\selenium-tests-servicecenter\src\test\java\com\ihg\crm\automation\selenium\tests\servicecenter\search\SearchGuestByStayTest.java
C:\GIT\sGIT\lyty-functional-tests\functional-tests\selenium\selenium-tests\selenium-tests-servicecenter\src\test\java\com\ihg\crm\automation\selenium\tests\servicecenter\programinfo\ambassador\ManualDowngradeTierLevelTest.java
C:\GIT\sGIT\lyty-functional-tests\functional-tests\selenium\selenium-tests\selenium-tests-servicecenter\src\test\java\com\ihg\crm\automation\selenium\tests\servicecenter\copperfield\PointEarningAndRedemptionForGoldTest.java
C:\GIT\sGIT\lyty-functional-tests\functional-tests\selenium\selenium-tests\selenium-tests-servicecenter\src\test\java\com\ihg\crm\automation\selenium\tests\servicecenter\programinfo\karma\KarmaTierLevelWithReferringMemberTest.java
C:\GIT\sGIT\lyty-functional-tests\functional-tests\selenium\selenium-tests\selenium-tests-servicecenter\src\test\java\com\ihg\crm\automation\selenium\tests\servicecenter\programinfo\UpdateRCMembershipFlagsTest.java
C:\GIT\sGIT\lyty-functional-tests\functional-tests\selenium\selenium-tests\selenium-tests-servicecenter\src\test\java\com\ihg\crm\automation\selenium\tests\servicecenter\business\CreateEventTest.java
C:\GIT\sGIT\lyty-functional-tests\functional-tests\selenium\selenium-tests\selenium-tests-servicecenter\src\test\java\com\ihg\crm\automation\selenium\tests\servicecenter\enrollment\dr\NoneChineseMemberByCheckTest.java
C:\GIT\sGIT\lyty-functional-tests\functional-tests\selenium\selenium-tests\selenium-tests-servicecenter\src\test\java\com\ihg\crm\automation\selenium\tests\servicecenter\enrollment\ambassador\EnrollmentByComplimentaryTest.java
C:\GIT\sGIT\lyty-functional-tests\functional-tests\selenium\selenium-tests\selenium-tests-servicecenter\src\test\java\com\ihg\crm\automation\selenium\tests\servicecenter\programinfo\CloseAllProgramsTest.java
C:\GIT\sGIT\lyty-functional-tests\functional-tests\selenium\selenium-tests\selenium-tests-servicecenter\src\test\java\com\ihg\crm\automation\selenium\tests\servicecenter\preferences\CreditCardOnTravelProfileTest.java
C:\GIT\sGIT\lyty-functional-tests\functional-tests\selenium\selenium-tests\selenium-tests-servicecenter\src\test\java\com\ihg\crm\automation\selenium\tests\servicecenter\programinfo\PartnerBenefitDetailsTest.java
C:\GIT\sGIT\lyty-functional-tests\functional-tests\selenium\selenium-tests\selenium-tests-servicecenter\src\test\java\com\ihg\crm\automation\selenium\tests\servicecenter\order\CreateVoucherOrderPaperFulfillmentTest.java
C:\GIT\sGIT\lyty-functional-tests\functional-tests\selenium\selenium-tests\selenium-tests-servicecenter\src\test\java\com\ihg\crm\automation\selenium\tests\servicecenter\stay\disqualified\StayNotEnoughRoomRevenueTest.java
C:\GIT\sGIT\lyty-functional-tests\functional-tests\selenium\selenium-tests\selenium-tests-servicecenter\src\test\java\com\ihg\crm\automation\selenium\tests\servicecenter\thresholder\AchieveMaintainGoldByNightsTest.java
C:\GIT\sGIT\lyty-functional-tests\functional-tests\selenium\selenium-tests\selenium-tests-servicecenter\src\test\java\com\ihg\crm\automation\selenium\tests\servicecenter\account\VerifyFlagOnAccountInfoFactoryTest.java
C:\GIT\sGIT\lyty-functional-tests\functional-tests\selenium\selenium-tests\selenium-tests-servicecenter\src\test\java\com\ihg\crm\automation\selenium\tests\servicecenter\unit\UnitOperationForClosedFrozenMemberTest.java
C:\GIT\sGIT\lyty-functional-tests\functional-tests\selenium\selenium-tests\selenium-tests-servicecenter\src\test\java\com\ihg\crm\automation\selenium\tests\servicecenter\enrollment\RcEnrollmentWithFlagsTest.java
C:\GIT\sGIT\lyty-functional-tests\functional-tests\selenium\selenium-tests\selenium-tests-servicecenter\src\test\java\com\ihg\crm\automation\selenium\tests\servicecenter\stay\CreateMissingStayBillingCommonTest.java
C:\GIT\sGIT\lyty-functional-tests\functional-tests\selenium\selenium-tests\selenium-tests-servicecenter\src\test\java\com\ihg\crm\automation\selenium\tests\servicecenter\login\ValidLoginTest.java
C:\GIT\sGIT\lyty-functional-tests\functional-tests\selenium\selenium-tests\selenium-tests-servicecenter\src\test\java\com\ihg\crm\automation\selenium\tests\servicecenter\programinfo\employee\CloseAccountStatusWithDuplicateTest.java
C:\GIT\sGIT\lyty-functional-tests\functional-tests\selenium\selenium-tests\selenium-tests-servicecenter\src\test\java\com\ihg\crm\automation\selenium\tests\servicecenter\account\LockUnlockProfileTest.java
C:\GIT\sGIT\lyty-functional-tests\functional-tests\selenium\selenium-tests\selenium-tests-servicecenter\src\test\java\com\ihg\crm\automation\selenium\tests\servicecenter\thresholder\AchieveMaintainPlatinumByPointsTest.java
C:\GIT\sGIT\lyty-functional-tests\functional-tests\selenium\selenium-tests\selenium-tests-servicecenter\src\test\java\com\ihg\crm\automation\selenium\tests\servicecenter\levelbenefits\LevelBenefitsCommon.java
C:\GIT\sGIT\lyty-functional-tests\functional-tests\selenium\selenium-tests\selenium-tests-servicecenter\src\test\java\com\ihg\crm\automation\selenium\tests\servicecenter\offer\RegisterToTargetOfferWithoutEndDateWithMemberInContextTest.java
C:\GIT\sGIT\lyty-functional-tests\functional-tests\selenium\selenium-tests\selenium-tests-servicecenter\src\test\java\com\ihg\crm\automation\selenium\tests\servicecenter\enrollment\EnrollmentToIHGTest.java
C:\GIT\sGIT\lyty-functional-tests\functional-tests\selenium\selenium-tests\selenium-tests-servicecenter\src\test\java\com\ihg\crm\automation\selenium\tests\servicecenter\preferences\VerificationStayPreferencesTabTest.java
C:\GIT\sGIT\lyty-functional-tests\functional-tests\selenium\selenium-tests\selenium-tests-servicecenter\src\test\java\com\ihg\crm\automation\selenium\tests\servicecenter\business\VerificationBusinessTabTest.java
C:\GIT\sGIT\lyty-functional-tests\functional-tests\selenium\selenium-tests\selenium-tests-servicecenter\src\test\java\com\ihg\crm\automation\selenium\tests\servicecenter\unit\TransferBalanceTest.java
C:\GIT\sGIT\lyty-functional-tests\functional-tests\selenium\selenium-tests\selenium-tests-servicecenter\src\test\java\com\ihg\crm\automation\selenium\tests\servicecenter\enrollment\natives\EnrollmentWithMemberFromTaiwanTest.java
C:\GIT\sGIT\lyty-functional-tests\functional-tests\selenium\selenium-tests\selenium-tests-servicecenter\src\test\java\com\ihg\crm\automation\selenium\tests\servicecenter\hotel\HotelCertificateOptionalCriteriaSearchTest.java
C:\GIT\sGIT\lyty-functional-tests\functional-tests\selenium\selenium-tests\selenium-tests-servicecenter\src\test\java\com\ihg\crm\automation\selenium\tests\servicecenter\deposit\DepositForClosedFrozenMemberTest.java
C:\GIT\sGIT\lyty-functional-tests\functional-tests\selenium\selenium-tests\selenium-tests-servicecenter\src\test\java\com\ihg\crm\automation\selenium\tests\servicecenter\preferences\RatePreferencesTest.java
C:\GIT\sGIT\lyty-functional-tests\functional-tests\selenium\selenium-tests\selenium-tests-servicecenter\src\test\java\com\ihg\crm\automation\selenium\tests\servicecenter\stay\disqualified\StayTotalRoomRevenueExceedsMaximumAllowedTest.java
C:\GIT\sGIT\lyty-functional-tests\functional-tests\selenium\selenium-tests\selenium-tests-servicecenter\src\test\java\com\ihg\crm\automation\selenium\tests\servicecenter\levelbenefits\RedeemPointsBenefitTest.java
C:\GIT\sGIT\lyty-functional-tests\functional-tests\selenium\selenium-tests\selenium-tests-servicecenter\src\test\java\com\ihg\crm\automation\selenium\tests\servicecenter\programinfo\ambassador\IncompatibleAndExclusiveFlagsVerificationTest.java
C:\GIT\sGIT\lyty-functional-tests\functional-tests\selenium\selenium-tests\selenium-tests-servicecenter\src\test\java\com\ihg\crm\automation\selenium\tests\servicecenter\programinfo\ambassador\ReactivateByComplimentaryTest.java
C:\GIT\sGIT\lyty-functional-tests\functional-tests\selenium\selenium-tests\selenium-tests-servicecenter\src\test\java\com\ihg\crm\automation\selenium\tests\servicecenter\programinfo\ambassador\RenewByCreditCardTest.java
C:\GIT\sGIT\lyty-functional-tests\functional-tests\selenium\selenium-tests\selenium-tests-servicecenter\src\test\java\com\ihg\crm\automation\selenium\tests\servicecenter\unit\TransferQualifyingNightsUnitsBalanceTest.java
C:\GIT\sGIT\lyty-functional-tests\functional-tests\selenium\selenium-tests\selenium-tests-servicecenter\src\test\java\com\ihg\crm\automation\selenium\tests\servicecenter\stay\AdjustStayTest.java
C:\GIT\sGIT\lyty-functional-tests\functional-tests\selenium\selenium-tests\selenium-tests-servicecenter\src\test\java\com\ihg\crm\automation\selenium\tests\servicecenter\search\GuestSearchTest.java
C:\GIT\sGIT\lyty-functional-tests\functional-tests\selenium\selenium-tests\selenium-tests-servicecenter\src\test\java\com\ihg\crm\automation\selenium\tests\servicecenter\unit\PurchaseUnitsTest.java
C:\GIT\sGIT\lyty-functional-tests\functional-tests\selenium\selenium-tests\selenium-tests-servicecenter\src\test\java\com\ihg\crm\automation\selenium\tests\servicecenter\copperfield\PointRemovalEventTest.java
C:\GIT\sGIT\lyty-functional-tests\functional-tests\selenium\selenium-tests\selenium-tests-servicecenter\src\test\java\com\ihg\crm\automation\selenium\tests\servicecenter\staticdata\FieldsConfigurationOnPersonalInfoPageTest.java
C:\GIT\sGIT\lyty-functional-tests\functional-tests\selenium\selenium-tests\selenium-tests-servicecenter\src\test\java\com\ihg\crm\automation\selenium\tests\servicecenter\programinfo\ambassador\ManualUpgradeOfTierLevelTest.java
C:\GIT\sGIT\lyty-functional-tests\functional-tests\selenium\selenium-tests\selenium-tests-servicecenter\src\test\java\com\ihg\crm\automation\selenium\tests\servicecenter\copperfield\TierLevelUpgradeDowngradeTest.java
C:\GIT\sGIT\lyty-functional-tests\functional-tests\selenium\selenium-tests\selenium-tests-servicecenter\src\test\java\com\ihg\crm\automation\selenium\tests\servicecenter\preferences\AddBRTravelProfileOnMaxTravelProfilesTest.java
C:\GIT\sGIT\lyty-functional-tests\functional-tests\selenium\selenium-tests\selenium-tests-servicecenter\src\test\java\com\ihg\crm\automation\selenium\tests\servicecenter\programinfo\karma\KarmaTierLevelForClosedMemberTest.java
C:\GIT\sGIT\lyty-functional-tests\functional-tests\selenium\selenium-tests\selenium-tests-servicecenter\src\test\java\com\ihg\crm\automation\selenium\tests\servicecenter\hotel\HotelCertificateUpdateAcceptCancelTest.java
C:\GIT\sGIT\lyty-functional-tests\functional-tests\selenium\selenium-tests\selenium-tests-servicecenter\src\test\java\com\ihg\crm\automation\selenium\tests\servicecenter\programinfo\AddHertzAlternateLoyaltyIDTest.java
C:\GIT\sGIT\lyty-functional-tests\functional-tests\selenium\selenium-tests\selenium-tests-servicecenter\src\test\java\com\ihg\crm\automation\selenium\tests\servicecenter\deposit\DepositQualifyingPointsTest.java
C:\GIT\sGIT\lyty-functional-tests\functional-tests\selenium\selenium-tests\selenium-tests-servicecenter\src\test\java\com\ihg\crm\automation\selenium\tests\servicecenter\programinfo\HertzAlternateLoyaltyIDForClosedMemberTest.java
C:\GIT\sGIT\lyty-functional-tests\functional-tests\selenium\selenium-tests\selenium-tests-servicecenter\src\test\java\com\ihg\crm\automation\selenium\tests\servicecenter\programinfo\karma\UpdateKarmaMembershipFlagsTest.java
C:\GIT\sGIT\lyty-functional-tests\functional-tests\selenium\selenium-tests\selenium-tests-servicecenter\src\test\java\com\ihg\crm\automation\selenium\tests\servicecenter\account\SendPINWithoutEmailTest.java
C:\GIT\sGIT\lyty-functional-tests\functional-tests\selenium\selenium-tests\selenium-tests-servicecenter\src\test\java\com\ihg\crm\automation\selenium\tests\servicecenter\smoke\SmokeTest.java
C:\GIT\sGIT\lyty-functional-tests\functional-tests\selenium\selenium-tests\selenium-tests-servicecenter\src\test\java\com\ihg\crm\automation\selenium\tests\servicecenter\thresholder\AchieveMaintainSpireByNightsTest.java
C:\GIT\sGIT\lyty-functional-tests\functional-tests\selenium\selenium-tests\selenium-tests-servicecenter\src\test\java\com\ihg\crm\automation\selenium\tests\servicecenter\programinfo\karma\KarTierLevelWithoutReasonTest.java
C:\GIT\sGIT\lyty-functional-tests\functional-tests\selenium\selenium-tests\selenium-tests-servicecenter\src\test\java\com\ihg\crm\automation\selenium\tests\servicecenter\rewardnight\UpdateRewardNightUnsuccessfulTest.java
C:\GIT\sGIT\lyty-functional-tests\functional-tests\selenium\selenium-tests\selenium-tests-servicecenter\src\test\java\com\ihg\crm\automation\selenium\tests\servicecenter\guest\AddSupplementaryAddressTest.java
C:\GIT\sGIT\lyty-functional-tests\functional-tests\selenium\selenium-tests\selenium-tests-servicecenter\src\test\java\com\ihg\crm\automation\selenium\tests\servicecenter\preferences\DefaultCheckboxForTravelProfileOnUpdateTest.java
C:\GIT\sGIT\lyty-functional-tests\functional-tests\selenium\selenium-tests\selenium-tests-servicecenter\src\test\java\com\ihg\crm\automation\selenium\tests\servicecenter\programinfo\ambassador\RenewByComplimentaryTest.java
C:\GIT\sGIT\lyty-functional-tests\functional-tests\selenium\selenium-tests\selenium-tests-servicecenter\src\test\java\com\ihg\crm\automation\selenium\tests\servicecenter\stay\IataNumberValidationTest.java
C:\GIT\sGIT\lyty-functional-tests\functional-tests\selenium\selenium-tests\selenium-tests-servicecenter\src\test\java\com\ihg\crm\automation\selenium\tests\servicecenter\commpref\MarkEmailAsInvalidTest.java
C:\GIT\sGIT\lyty-functional-tests\functional-tests\selenium\selenium-tests\selenium-tests-servicecenter\src\test\java\com\ihg\crm\automation\selenium\tests\servicecenter\enrollment\IsEmailPhonePreferredTest.java
C:\GIT\sGIT\lyty-functional-tests\functional-tests\selenium\selenium-tests\selenium-tests-servicecenter\src\test\java\com\ihg\crm\automation\selenium\tests\servicecenter\programinfo\ambassador\ReactivateByCreditCardTest.java
C:\GIT\sGIT\lyty-functional-tests\functional-tests\selenium\selenium-tests\selenium-tests-servicecenter\src\test\java\com\ihg\crm\automation\selenium\tests\servicecenter\account\VerifyFlagOnAccountInfoFactory.java
C:\GIT\sGIT\lyty-functional-tests\functional-tests\selenium\selenium-tests\selenium-tests-servicecenter\src\test\java\com\ihg\crm\automation\selenium\tests\servicecenter\stay\CreateMissingStayMilesTest.java
C:\GIT\sGIT\lyty-functional-tests\functional-tests\selenium\selenium-tests\selenium-tests-servicecenter\src\test\java\com\ihg\crm\automation\selenium\tests\servicecenter\stay\EnrollingStayTest.java
C:\GIT\sGIT\lyty-functional-tests\functional-tests\selenium\selenium-tests\selenium-tests-servicecenter\src\test\java\com\ihg\crm\automation\selenium\tests\servicecenter\commpref\VerifyStatusTest.java
C:\GIT\sGIT\lyty-functional-tests\functional-tests\selenium\selenium-tests\selenium-tests-servicecenter\src\test\java\com\ihg\crm\automation\selenium\tests\servicecenter\unit\TransferUnitsTest.java
C:\GIT\sGIT\lyty-functional-tests\functional-tests\selenium\selenium-tests\selenium-tests-servicecenter\src\test\java\com\ihg\crm\automation\selenium\tests\servicecenter\business\BusinessEventOnAllEventPageTest.java
C:\GIT\sGIT\lyty-functional-tests\functional-tests\selenium\selenium-tests\selenium-tests-servicecenter\src\test\java\com\ihg\crm\automation\selenium\tests\servicecenter\deposit\TransactionTypeCoPartnerTest.java
C:\GIT\sGIT\lyty-functional-tests\functional-tests\selenium\selenium-tests\selenium-tests-servicecenter\src\test\java\com\ihg\crm\automation\selenium\tests\servicecenter\catalog\OrderWithUpdatingDataTest.java
C:\GIT\sGIT\lyty-functional-tests\functional-tests\selenium\selenium-tests\selenium-tests-servicecenter\src\test\java\com\ihg\crm\automation\selenium\tests\servicecenter\programinfo\DowngradeSpireAmbassadorTierLevelTest.java
C:\GIT\sGIT\lyty-functional-tests\functional-tests\selenium\selenium-tests\selenium-tests-servicecenter\src\test\java\com\ihg\crm\automation\selenium\tests\servicecenter\deposit\DepositEligibilityByGuestRegionTest.java
C:\GIT\sGIT\lyty-functional-tests\functional-tests\selenium\selenium-tests\selenium-tests-servicecenter\src\test\java\com\ihg\crm\automation\selenium\tests\servicecenter\uniqueemail\DuplicateEmailOnCatalogPageTest.java
C:\GIT\sGIT\lyty-functional-tests\functional-tests\selenium\selenium-tests\selenium-tests-servicecenter\src\test\java\com\ihg\crm\automation\selenium\tests\servicecenter\socialid\VerificationSocialIdTest.java
C:\GIT\sGIT\lyty-functional-tests\functional-tests\selenium\selenium-tests\selenium-tests-servicecenter\src\test\java\com\ihg\crm\automation\selenium\tests\servicecenter\enrollment\EnrollmentWithReferredByTest.java
C:\GIT\sGIT\lyty-functional-tests\functional-tests\selenium\selenium-tests\selenium-tests-servicecenter\src\test\java\com\ihg\crm\automation\selenium\tests\servicecenter\enrollment\natives\NonChineseMemberWithNativeLanguageTest.java
C:\GIT\sGIT\lyty-functional-tests\functional-tests\selenium\selenium-tests\selenium-tests-servicecenter\src\test\java\com\ihg\crm\automation\selenium\tests\servicecenter\staticdata\RetrieveCountriesTest.java
C:\GIT\sGIT\lyty-functional-tests\functional-tests\selenium\selenium-tests\selenium-tests-servicecenter\src\test\java\com\ihg\crm\automation\selenium\tests\servicecenter\freenight\FreeNightsByOfferRegistrationTest.java
C:\GIT\sGIT\lyty-functional-tests\functional-tests\selenium\selenium-tests\selenium-tests-servicecenter\src\test\java\com\ihg\crm\automation\selenium\tests\servicecenter\rewardnight\UpdateRewardNightSuccessfulTest.java
C:\GIT\sGIT\lyty-functional-tests\functional-tests\selenium\selenium-tests\selenium-tests-servicecenter\src\test\java\com\ihg\crm\automation\selenium\tests\servicecenter\unit\GoodwillMileUnitsTest.java
C:\GIT\sGIT\lyty-functional-tests\functional-tests\selenium\selenium-tests\selenium-tests-servicecenter\src\test\java\com\ihg\crm\automation\selenium\tests\servicecenter\enrollment\CancelRcEnrollmentTest.java
C:\GIT\sGIT\lyty-functional-tests\functional-tests\selenium\selenium-tests\selenium-tests-servicecenter\src\test\java\com\ihg\crm\automation\selenium\tests\servicecenter\enrollment\ambassador\EnrollmentByCreditCardTest.java
C:\GIT\sGIT\lyty-functional-tests\functional-tests\selenium\selenium-tests\selenium-tests-servicecenter\src\test\java\com\ihg\crm\automation\selenium\tests\servicecenter\stay\StayTierLevelPointsTest.java
C:\GIT\sGIT\lyty-functional-tests\functional-tests\selenium\selenium-tests\selenium-tests-servicecenter\src\test\java\com\ihg\crm\automation\selenium\tests\servicecenter\catalog\MultipleOrderTest.java
C:\GIT\sGIT\lyty-functional-tests\functional-tests\selenium\selenium-tests\selenium-tests-servicecenter\src\test\java\com\ihg\crm\automation\selenium\tests\servicecenter\programinfo\PurchaseTierLevelDowngradeToGoldTest.java
C:\GIT\sGIT\lyty-functional-tests\functional-tests\selenium\selenium-tests\selenium-tests-servicecenter\src\test\java\com\ihg\crm\automation\selenium\tests\servicecenter\rewardnight\RewardNightOperationsTest.java
C:\GIT\sGIT\lyty-functional-tests\functional-tests\selenium\selenium-tests\selenium-tests-servicecenter\src\test\java\com\ihg\crm\automation\selenium\tests\servicecenter\freenight\FreeNightCommon.java
C:\GIT\sGIT\lyty-functional-tests\functional-tests\selenium\selenium-tests\selenium-tests-servicecenter\src\test\java\com\ihg\crm\automation\selenium\tests\servicecenter\catalog\WithClosedMemberInContextTest.java
C:\GIT\sGIT\lyty-functional-tests\functional-tests\selenium\selenium-tests\selenium-tests-servicecenter\src\test\java\com\ihg\crm\automation\selenium\tests\servicecenter\unit\GoodwillUnitsTest.java
C:\GIT\sGIT\lyty-functional-tests\functional-tests\selenium\selenium-tests\selenium-tests-servicecenter\src\test\java\com\ihg\crm\automation\selenium\tests\servicecenter\enrollment\SimpleEnrollmentTest.java
C:\GIT\sGIT\lyty-functional-tests\functional-tests\selenium\selenium-tests\selenium-tests-servicecenter\src\test\java\com\ihg\crm\automation\selenium\tests\servicecenter\enrollment\EarningPreferenceIsMilesTest.java
C:\GIT\sGIT\lyty-functional-tests\functional-tests\selenium\selenium-tests\selenium-tests-servicecenter\src\test\java\com\ihg\crm\automation\selenium\tests\servicecenter\programinfo\ambassador\EnrollToAMBWithCommPrefUpdateTest.java
C:\GIT\sGIT\lyty-functional-tests\functional-tests\selenium\selenium-tests\selenium-tests-servicecenter\src\test\java\com\ihg\crm\automation\selenium\tests\servicecenter\offer\RegisterToTargetOfferWithoutEndDateWithoutMemberInContextTest.java
C:\GIT\sGIT\lyty-functional-tests\functional-tests\selenium\selenium-tests\selenium-tests-servicecenter\src\test\java\com\ihg\crm\automation\selenium\tests\servicecenter\programinfo\CloseMembershipValidateStatusOfDependingProgramsTest.java
C:\GIT\sGIT\lyty-functional-tests\functional-tests\selenium\selenium-tests\selenium-tests-servicecenter\src\test\java\com\ihg\crm\automation\selenium\tests\servicecenter\thresholder\AchieveMaintainPlatinumByNightsTest.java
C:\GIT\sGIT\lyty-functional-tests\functional-tests\selenium\selenium-tests\selenium-tests-servicecenter\src\test\java\com\ihg\crm\automation\selenium\tests\servicecenter\deposit\DepositEligibilityByHotelRegion.java
C:\GIT\sGIT\lyty-functional-tests\functional-tests\selenium\selenium-tests\selenium-tests-servicecenter\src\test\java\com\ihg\crm\automation\selenium\tests\servicecenter\uniqueemail\DuplicateEmailOnPersonalInfoPageTest.java
C:\GIT\sGIT\lyty-functional-tests\functional-tests\selenium\selenium-tests\selenium-tests-servicecenter\src\test\java\com\ihg\crm\automation\selenium\tests\servicecenter\copperfield\RestoreButtonAvailabilityTest.java
C:\GIT\sGIT\lyty-functional-tests\functional-tests\selenium\selenium-tests\selenium-tests-servicecenter\src\test\java\com\ihg\crm\automation\selenium\tests\servicecenter\tierlevelexpiration\AwardTierLevelByOfferTest.java
C:\GIT\sGIT\lyty-functional-tests\functional-tests\selenium\selenium-tests\selenium-tests-servicecenter\src\test\java\com\ihg\crm\automation\selenium\tests\servicecenter\unit\PurchaseGoldTierLevelTest.java
C:\GIT\sGIT\lyty-functional-tests\functional-tests\selenium\selenium-tests\selenium-tests-servicecenter\src\test\java\com\ihg\crm\automation\selenium\tests\servicecenter\catalog\WithoutMemberInTheContextTest.java
C:\GIT\sGIT\lyty-functional-tests\functional-tests\selenium\selenium-tests\selenium-tests-servicecenter\src\test\java\com\ihg\crm\automation\selenium\tests\servicecenter\search\GuestSearchByCombinationsTest.java
C:\GIT\sGIT\lyty-functional-tests\functional-tests\selenium\selenium-tests\selenium-tests-servicecenter\src\test\java\com\ihg\crm\automation\selenium\tests\servicecenter\copperfield\RestoreExpiredBalanceTest.java
C:\GIT\sGIT\lyty-functional-tests\functional-tests\selenium\selenium-tests\selenium-tests-servicecenter\src\test\java\com\ihg\crm\automation\selenium\tests\servicecenter\demo\DemoTest.java
C:\GIT\sGIT\lyty-functional-tests\functional-tests\selenium\selenium-tests\selenium-tests-servicecenter\src\test\java\com\ihg\crm\automation\selenium\tests\servicecenter\enrollment\CustomerInformationTest.java
C:\GIT\sGIT\lyty-functional-tests\functional-tests\selenium\selenium-tests\selenium-tests-servicecenter\src\test\java\com\ihg\crm\automation\selenium\tests\servicecenter\programinfo\ambassador\EnrollToAMBWithMemberContactsUpdateTest.java
C:\GIT\sGIT\lyty-functional-tests\functional-tests\selenium\selenium-tests\selenium-tests-servicecenter\src\test\java\com\ihg\crm\automation\selenium\tests\servicecenter\copperfield\VerificationDatesUtils.java
C:\GIT\sGIT\lyty-functional-tests\functional-tests\selenium\selenium-tests\selenium-tests-servicecenter\src\test\java\com\ihg\crm\automation\selenium\tests\servicecenter\order\VoucherOrderPlatinumTest.java
C:\GIT\sGIT\lyty-functional-tests\functional-tests\selenium\selenium-tests\selenium-tests-servicecenter\src\test\java\com\ihg\crm\automation\selenium\tests\servicecenter\commpref\CustomerServiceEmailTest.java
C:\GIT\sGIT\lyty-functional-tests\functional-tests\selenium\selenium-tests\selenium-tests-servicecenter\src\test\java\com\ihg\crm\automation\selenium\tests\servicecenter\deposit\DepositNoneQualifyingPointsTest.java
C:\GIT\sGIT\lyty-functional-tests\functional-tests\selenium\selenium-tests\selenium-tests-servicecenter\src\test\java\com\ihg\crm\automation\selenium\tests\servicecenter\guest\UpdateGuestContactsTest.java
C:\GIT\sGIT\lyty-functional-tests\functional-tests\selenium\selenium-tests\selenium-tests-servicecenter\src\test\java\com\ihg\crm\automation\selenium\tests\servicecenter\programinfo\ambassador\ReactivateByPointsTest.java
C:\GIT\sGIT\lyty-functional-tests\functional-tests\selenium\selenium-tests\selenium-tests-servicecenter\src\test\java\com\ihg\crm\automation\selenium\tests\servicecenter\catalog\CatalogCommon.java
C:\GIT\sGIT\lyty-functional-tests\functional-tests\selenium\selenium-tests\selenium-tests-servicecenter\src\test\java\com\ihg\crm\automation\selenium\tests\servicecenter\enrollment\br\EnrollmentToBRExistingRCMemberTest.java
C:\GIT\sGIT\lyty-functional-tests\functional-tests\selenium\selenium-tests\selenium-tests-servicecenter\src\test\java\com\ihg\crm\automation\selenium\tests\servicecenter\programinfo\TryToDowngradeSpireRamTierLevelTest.java
C:\GIT\sGIT\lyty-functional-tests\functional-tests\selenium\selenium-tests\selenium-tests-servicecenter\src\test\java\com\ihg\crm\automation\selenium\tests\servicecenter\deposit\DepositTierLevelTest.java
C:\GIT\sGIT\lyty-functional-tests\functional-tests\selenium\selenium-tests\selenium-tests-servicecenter\src\test\java\com\ihg\crm\automation\selenium\tests\servicecenter\programinfo\UpgradeRCTierLevelToGoldTest.java
C:\GIT\sGIT\lyty-functional-tests\functional-tests\selenium\selenium-tests\selenium-tests-servicecenter\src\test\java\com\ihg\crm\automation\selenium\tests\servicecenter\commpref\MarkPhoneAsInvalidTest.java
C:\GIT\sGIT\lyty-functional-tests\functional-tests\selenium\selenium-tests\selenium-tests-servicecenter\src\test\java\com\ihg\crm\automation\selenium\tests\servicecenter\enrollment\natives\EnrollmentWithMemberFromChinaTest.java
C:\GIT\sGIT\lyty-functional-tests\functional-tests\selenium\selenium-tests\selenium-tests-servicecenter\src\test\java\com\ihg\crm\automation\selenium\tests\servicecenter\enrollment\ambassador\AMBEnrollmentCommon.java
C:\GIT\sGIT\lyty-functional-tests\functional-tests\selenium\selenium-tests\selenium-tests-servicecenter\src\test\java\com\ihg\crm\automation\selenium\tests\servicecenter\enrollment\CompleteEnrollmentTest.java
C:\GIT\sGIT\lyty-functional-tests\functional-tests\selenium\selenium-tests\selenium-tests-servicecenter\src\test\java\com\ihg\crm\automation\selenium\tests\servicecenter\deposit\DepositMilesTest.java
C:\GIT\sGIT\lyty-functional-tests\functional-tests\selenium\selenium-tests\selenium-tests-servicecenter\src\test\java\com\ihg\crm\automation\selenium\tests\servicecenter\offer\RegisterInSecondaryOfferTest.java
C:\GIT\sGIT\lyty-functional-tests\functional-tests\selenium\selenium-tests\selenium-tests-servicecenter\src\test\java\com\ihg\crm\automation\selenium\tests\servicecenter\refdata\VerifyCountryAndCurrencyTest.java
C:\GIT\sGIT\lyty-functional-tests\functional-tests\selenium\selenium-tests\selenium-tests-servicecenter\src\test\java\com\ihg\crm\automation\selenium\tests\servicecenter\enrollment\SalutationPopulatesGenderTest.java
C:\GIT\sGIT\lyty-functional-tests\functional-tests\selenium\selenium-tests\selenium-tests-servicecenter\src\test\java\com\ihg\crm\automation\selenium\tests\servicecenter\programinfo\dr\ProgramInformationDRTest.java
C:\GIT\sGIT\lyty-functional-tests\functional-tests\selenium\selenium-tests\selenium-tests-servicecenter\src\test\java\com\ihg\crm\automation\selenium\tests\servicecenter\enrollment\ambassador\EnrollmentByCashTest.java
C:\GIT\sGIT\lyty-functional-tests\functional-tests\selenium\selenium-tests\selenium-tests-servicecenter\src\test\java\com\ihg\crm\automation\selenium\tests\servicecenter\programinfo\ambassador\RenewByPointsTest.java
C:\GIT\sGIT\lyty-functional-tests\functional-tests\selenium\selenium-tests\selenium-tests-servicecenter\src\test\java\com\ihg\crm\automation\selenium\tests\servicecenter\thresholder\AchieveLevelsByPointsTest.java
C:\GIT\sGIT\lyty-functional-tests\functional-tests\selenium\selenium-tests\selenium-tests-servicecenter\src\test\java\com\ihg\crm\automation\selenium\tests\servicecenter\programinfo\ambassador\ManualUpgradeTierLevelRequiredReferringMemberTest.java
C:\GIT\sGIT\lyty-functional-tests\functional-tests\selenium\selenium-tests\selenium-tests-servicecenter\src\test\java\com\ihg\crm\automation\selenium\tests\servicecenter\enrollment\EnrollmentToRcWithOfferTest.java
C:\GIT\sGIT\lyty-functional-tests\functional-tests\selenium\selenium-tests\selenium-tests-servicecenter\src\test\java\com\ihg\crm\automation\selenium\tests\servicecenter\commpref\CustomerServicePhoneTest.java
C:\GIT\sGIT\lyty-functional-tests\functional-tests\selenium\selenium-tests\selenium-tests-servicecenter\src\test\java\com\ihg\crm\automation\selenium\tests\servicecenter\catalog\TierLevelEligibilityCheckTest.java
C:\GIT\sGIT\lyty-functional-tests\functional-tests\selenium\selenium-tests\selenium-tests-servicecenter\src\test\java\com\ihg\crm\automation\selenium\tests\servicecenter\tierlevelexpiration\KarmaTierLevelExpirationForSpireNextYearTest.java
C:\GIT\sGIT\lyty-functional-tests\functional-tests\selenium\selenium-tests\selenium-tests-servicecenter\src\test\java\com\ihg\crm\automation\selenium\tests\servicecenter\thresholder\AchieveMaintainSpireByPointsTest.java
C:\GIT\sGIT\lyty-functional-tests\functional-tests\selenium\selenium-tests\selenium-tests-servicecenter\src\test\java\com\ihg\crm\automation\selenium\tests\servicecenter\programinfo\dr\DRCommon.java
C:\GIT\sGIT\lyty-functional-tests\functional-tests\selenium\selenium-tests\selenium-tests-servicecenter\src\test\java\com\ihg\crm\automation\selenium\tests\servicecenter\programinfo\dr\RenewByCreditCardTest.java
C:\GIT\sGIT\lyty-functional-tests\functional-tests\selenium\selenium-tests\selenium-tests-servicecenter\src\test\java\com\ihg\crm\automation\selenium\tests\servicecenter\stay\ForceQualifyingRateStayTest.java
C:\GIT\sGIT\lyty-functional-tests\functional-tests\selenium\selenium-tests\selenium-tests-servicecenter\src\test\java\com\ihg\crm\automation\selenium\tests\servicecenter\programinfo\ambassador\ReactivateByCashTest.java
C:\GIT\sGIT\lyty-functional-tests\functional-tests\selenium\selenium-tests\selenium-tests-servicecenter\src\test\java\com\ihg\crm\automation\selenium\tests\servicecenter\copperfield\MileEarningTest.java
C:\GIT\sGIT\lyty-functional-tests\functional-tests\selenium\selenium-tests\selenium-tests-servicecenter\src\test\java\com\ihg\crm\automation\selenium\tests\servicecenter\programinfo\EditMemberSinceFieldTest.java
C:\GIT\sGIT\lyty-functional-tests\functional-tests\selenium\selenium-tests\selenium-tests-servicecenter\src\test\java\com\ihg\crm\automation\selenium\tests\servicecenter\tierlevelexpiration\NotOverridingLifetimeTest.java
C:\GIT\sGIT\lyty-functional-tests\functional-tests\selenium\selenium-tests\selenium-tests-servicecenter\src\test\java\com\ihg\crm\automation\selenium\tests\servicecenter\deposit\DepositEligibilityByProgramLevelTest.java
C:\GIT\sGIT\lyty-functional-tests\functional-tests\selenium\selenium-tests\selenium-tests-servicecenter\src\test\java\com\ihg\crm\automation\selenium\tests\servicecenter\enrollment\dr\ChineseMemberByComplimentaryTest.java
C:\GIT\sGIT\lyty-functional-tests\functional-tests\selenium\selenium-tests\selenium-tests-servicecenter\src\test\java\com\ihg\crm\automation\selenium\tests\servicecenter\commpref\RCMemberWithoutEmailAndPhoneTest.java
C:\GIT\sGIT\lyty-functional-tests\functional-tests\selenium\selenium-tests\selenium-tests-servicecenter\src\test\java\com\ihg\crm\automation\selenium\tests\servicecenter\stay\disqualified\StayByIATATest.java
C:\GIT\sGIT\lyty-functional-tests\functional-tests\selenium\selenium-tests\selenium-tests-servicecenter\src\test\java\com\ihg\crm\automation\selenium\tests\servicecenter\programinfo\ChangeGuestAccountStatusTest.java
C:\GIT\sGIT\lyty-functional-tests\functional-tests\selenium\selenium-tests\selenium-tests-servicecenter\src\test\java\com\ihg\crm\automation\selenium\tests\servicecenter\uniqueemail\DuplicateEmailOnAccountInfoPageTest.java
C:\GIT\sGIT\lyty-functional-tests\functional-tests\selenium\selenium-tests\selenium-tests-servicecenter\src\test\java\com\ihg\crm\automation\selenium\tests\servicecenter\hotel\FreeNightReimbursementSearchTest.java
C:\GIT\sGIT\lyty-functional-tests\functional-tests\selenium\selenium-tests\selenium-tests-servicecenter\src\test\java\com\ihg\crm\automation\selenium\tests\servicecenter\unit\PurchaseGiftTest.java
